(module c_tant_S (layer F.Cu) (tedit 5B57142C)
  (descr "SMT capacitor, tantalum size S (EIA 3216-12)")
  (fp_text reference C? (at 0 -1.5) (layer F.SilkS)
    (effects (font (size 0.5 0.5) (thickness 0.1)))
  )
  (fp_text value c_tant_S (at 0 1.5) (layer F.SilkS) hide
    (effects (font (size 0.5 0.5) (thickness 0.1)))
  )
  (fp_line (start -1.7 -0.9) (end -1.7 0.9) (layer F.SilkS) (width 0.127))
  (fp_line (start -1.7 0.9) (end 1.7 0.9) (layer F.SilkS) (width 0.127))
  (fp_line (start 1.7 0.9) (end 1.7 -0.9) (layer F.SilkS) (width 0.127))
  (fp_line (start 1.7 -0.9) (end -1.7 -0.9) (layer F.SilkS) (width 0.127))
  (fp_line (start -0.7 0.9) (end -0.7 -0.9) (layer F.SilkS) (width 0.127))
  (fp_line (start -1.8 1.1) (end -1.8 1.9) (layer F.SilkS) (width 0.15))
  (fp_line (start -2.2 1.5) (end -1.4 1.5) (layer F.SilkS) (width 0.15))
  (fp_poly (pts (xy -1.7 -0.9) (xy -0.7 -0.9) (xy -0.7 0.9) (xy -1.7 0.9)) (layer F.SilkS) (width 0.01))
  (pad 2 smd rect (at 1.31 0) (size 1.8 1.23) (layers F.Cu F.Paste F.Mask))
  (pad 1 smd rect (at -1.31 0) (size 1.8 1.23) (layers F.Cu F.Paste F.Mask))
  (model walter/smd_cap/c_tant_S.wrl
    (at (xyz 0 0 0))
    (scale (xyz 1 1 1))
    (rotate (xyz 0 0 180))
  )
)
