(module c_tant_V (layer F.Cu) (tedit 5B57150C)
  (descr "SMT capacitor, tantalum size V (EIA 7343-19)")
  (fp_text reference C? (at 0 -3) (layer F.SilkS)
    (effects (font (size 0.8 0.8) (thickness 0.16)))
  )
  (fp_text value c_tant_V (at 0 3) (layer F.SilkS) hide
    (effects (font (size 0.8 0.8) (thickness 0.16)))
  )
  (fp_line (start -2.2 -2.3) (end -2.2 2.3) (layer F.SilkS) (width 0.127))
  (fp_line (start -3.8 -2.3) (end -3.8 2.3) (layer F.SilkS) (width 0.127))
  (fp_line (start -3.8 2.3) (end 3.8 2.3) (layer F.SilkS) (width 0.127))
  (fp_line (start 3.8 2.3) (end 3.8 -2.3) (layer F.SilkS) (width 0.127))
  (fp_line (start 3.8 -2.3) (end -3.8 -2.3) (layer F.SilkS) (width 0.127))
  (fp_poly (pts (xy -3.8 -2.3) (xy -2.2 -2.3) (xy -2.2 2.3) (xy -3.8 2.3)) (layer F.SilkS) (width 0.01))
  (fp_line (start -4.2 2.3) (end -4.2 3.1) (layer F.SilkS) (width 0.15))
  (fp_line (start -4.6 2.7) (end -3.8 2.7) (layer F.SilkS) (width 0.15))
  (pad 2 smd rect (at 3.12 0) (size 2.37 2.43) (layers F.Cu F.Paste F.Mask))
  (pad 1 smd rect (at -3.12 0) (size 2.37 2.43) (layers F.Cu F.Paste F.Mask))
  (model walter/smd_cap/c_tant_V.wrl
    (at (xyz 0 0 0))
    (scale (xyz 1 1 1))
    (rotate (xyz 0 0 180))
  )
)
