(module c_tant_P (layer F.Cu) (tedit 5B5706D5)
  (descr "SMT capacitor, tantalum size P (EIA 2012-10)")
  (fp_text reference C? (at 0 -1.3) (layer F.SilkS)
    (effects (font (size 0.5 0.5) (thickness 0.1)))
  )
  (fp_text value c_tant_P (at 0 1.3) (layer F.SilkS) hide
    (effects (font (size 0.5 0.5) (thickness 0.1)))
  )
  (fp_line (start -0.6 -0.7) (end -0.6 0.7) (layer F.SilkS) (width 0.127))
  (fp_line (start -1.1 -0.7) (end -1.1 0.7) (layer F.SilkS) (width 0.127))
  (fp_line (start -1.1 0.7) (end 1.1 0.7) (layer F.SilkS) (width 0.127))
  (fp_line (start 1.1 0.7) (end 1.1 -0.7) (layer F.SilkS) (width 0.127))
  (fp_line (start 1.1 -0.7) (end -1.1 -0.7) (layer F.SilkS) (width 0.127))
  (fp_poly (pts (xy -1.1 -0.7) (xy -0.6 -0.7) (xy -0.6 0.7) (xy -1.1 0.7)) (layer F.SilkS) (width 0.01))
  (fp_line (start -1.4 0.9) (end -1.4 1.7) (layer F.SilkS) (width 0.15))
  (fp_line (start -1.8 1.3) (end -1 1.3) (layer F.SilkS) (width 0.15))
  (pad 2 smd rect (at 1.2125 0) (size 1.1 1.2) (layers F.Cu F.Paste F.Mask))
  (pad 1 smd rect (at -1.2125 0) (size 1.1 1.2) (layers F.Cu F.Paste F.Mask))
  (model walter/smd_cap/c_tant_P.wrl
    (at (xyz 0 0 0))
    (scale (xyz 1 1 1))
    (rotate (xyz 0 0 180))
  )
)
