(module to18 (layer F.Cu) (tedit 5B4DA5A2)
  (descr "TO18 package")
  (fp_text reference TO18 (at 0 3.175) (layer F.SilkS)
    (effects (font (size 1.524 1.524) (thickness 0.3048)))
  )
  (fp_text value Q*** (at 0 -4.445) (layer F.SilkS)
    (effects (font (size 1.524 1.524) (thickness 0.3048)))
  )
  (fp_line (start -2.159 1.397) (end -2.794 2.032) (layer F.SilkS) (width 0.32258))
  (fp_line (start -2.794 2.032) (end -2.032 2.794) (layer F.SilkS) (width 0.32258))
  (fp_line (start -2.032 2.794) (end -1.397 2.159) (layer F.SilkS) (width 0.32258))
  (fp_circle (center 0 0) (end -2.54 0) (layer F.SilkS) (width 0.32258))
  (pad 1 thru_hole circle (at 1.5 0) (size 1.75 1.75) (drill 0.8) (layers *.Cu *.Mask F.SilkS))
  (pad 2 thru_hole circle (at 0 -1.5) (size 1.75 1.75) (drill 0.8) (layers *.Cu *.Mask F.SilkS))
  (pad 3 thru_hole circle (at -1.5 0) (size 1.75 1.75) (drill 0.8) (layers *.Cu *.Mask F.SilkS))
  (model walter/to/to18.wrl
    (at (xyz 0 0 0))
    (scale (xyz 1 1 1))
    (rotate (xyz 0 0 0))
  )
)
