(module top3-sp (layer F.Cu) (tedit 5B4DC0DC)
  (descr "TOP3, standard pinout")
  (fp_text reference Q? (at 0 -4.5) (layer F.SilkS)
    (effects (font (size 1.5 1.5) (thickness 0.3)))
  )
  (fp_text value TOP3-sp (at 0 3) (layer F.SilkS)
    (effects (font (size 1.5 1.5) (thickness 0.3)))
  )
  (fp_line (start -7.62 -2.286) (end 7.62 -2.286) (layer F.SilkS) (width 0.3048))
  (fp_line (start -7.62 1.524) (end 7.62 1.524) (layer F.SilkS) (width 0.3048))
  (fp_line (start 7.62 1.524) (end 7.62 -3.048) (layer F.SilkS) (width 0.3048))
  (fp_line (start 7.62 -3.048) (end -7.62 -3.048) (layer F.SilkS) (width 0.3048))
  (fp_line (start -7.62 -3.048) (end -7.62 1.524) (layer F.SilkS) (width 0.3048))
  (pad 3 thru_hole circle (at 5.52 0) (size 3.5 3.5) (drill 1.5) (layers *.Cu *.Mask F.SilkS))
  (pad 2 thru_hole circle (at 0 0) (size 3.5 3.5) (drill 1.5) (layers *.Cu *.Mask F.SilkS))
  (pad 1 thru_hole circle (at -5.52 0) (size 3.5 3.5) (drill 1.5) (layers *.Cu *.Mask F.SilkS))
  (model walter/to/top3.wrl
    (at (xyz 0 0 0))
    (scale (xyz 1 1 1))
    (rotate (xyz 0 0 0))
  )
)
