(module sot89-5 (layer F.Cu) (tedit 5B4EDD8D)
  (descr SOT89-5)
  (fp_text reference Q? (at 0 -3.2) (layer F.SilkS)
    (effects (font (size 1 1) (thickness 0.2)))
  )
  (fp_text value SOT89-5 (at 0 3.2) (layer F.SilkS)
    (effects (font (size 1 1) (thickness 0.2)))
  )
  (fp_line (start 1.8 -2.25) (end 1.8 -1.3) (layer F.SilkS) (width 0.15))
  (fp_line (start 1.2 -2.25) (end 1.8 -2.25) (layer F.SilkS) (width 0.15))
  (fp_line (start 1.2 -1.3) (end 1.2 -2.25) (layer F.SilkS) (width 0.15))
  (fp_line (start -1.2 -2.25) (end -1.8 -2.25) (layer F.SilkS) (width 0.15))
  (fp_line (start -1.2 -1.3) (end -1.2 -2.25) (layer F.SilkS) (width 0.15))
  (fp_line (start -1.8 -1.3) (end -1.8 -2.25) (layer F.SilkS) (width 0.15))
  (fp_line (start 2.3 1.3) (end -2.3 1.3) (layer F.SilkS) (width 0.15))
  (fp_line (start 2.3 -1.3) (end 2.3 1.3) (layer F.SilkS) (width 0.15))
  (fp_line (start -2.3 -1.3) (end 2.3 -1.3) (layer F.SilkS) (width 0.15))
  (fp_line (start -2.3 1.3) (end -2.3 -1.3) (layer F.SilkS) (width 0.15))
  (fp_line (start -0.9 -2.25) (end -0.9 -1.3) (layer F.SilkS) (width 0.15))
  (fp_line (start 0.9 -2.25) (end 0.9 -1.3) (layer F.SilkS) (width 0.15))
  (fp_line (start -0.9 -2.25) (end 0.9 -2.25) (layer F.SilkS) (width 0.15))
  (fp_line (start -1.8 2.25) (end -1.8 1.3) (layer F.SilkS) (width 0.15))
  (fp_line (start -1.2 2.25) (end -1.2 1.3) (layer F.SilkS) (width 0.15))
  (fp_line (start -1.8 2.25) (end -1.2 2.25) (layer F.SilkS) (width 0.15))
  (fp_line (start -0.3 2.25) (end 0.3 2.25) (layer F.SilkS) (width 0.15))
  (fp_line (start 0.3 2.25) (end 0.3 1.3) (layer F.SilkS) (width 0.15))
  (fp_line (start -0.3 2.25) (end -0.3 1.3) (layer F.SilkS) (width 0.15))
  (fp_line (start 1.2 2.25) (end 1.2 1.3) (layer F.SilkS) (width 0.15))
  (fp_line (start 1.8 2.25) (end 1.8 1.3) (layer F.SilkS) (width 0.15))
  (fp_line (start 1.2 2.25) (end 1.8 2.25) (layer F.SilkS) (width 0.15))
  (pad 5 smd rect (at -1.5 -1.65) (size 0.68 1.2) (layers F.Cu F.Paste F.Mask))
  (pad 4 smd rect (at 1.5 -1.65) (size 0.68 1.2) (layers F.Cu F.Paste F.Mask))
  (pad 2 smd rect (at 0 -0.475) (size 1.93 3.05) (layers F.Cu F.Paste F.Mask))
  (pad 3 smd rect (at 1.5 1.65) (size 0.68 1.2) (layers F.Cu F.Paste F.Mask))
  (pad 2 smd rect (at 0 1.65) (size 0.68 1.2) (layers F.Cu F.Paste F.Mask))
  (pad 1 smd rect (at -1.5 1.65) (size 0.68 1.2) (layers F.Cu F.Paste F.Mask))
  (model walter/smd_trans/sot89-5.wrl
    (at (xyz 0 0 0))
    (scale (xyz 1 1 1))
    (rotate (xyz 0 0 0))
  )
)
