(module Cree_ML-E (layer F.Cu)
  (descr "Cree ML-E")
  (fp_text reference LD? (at 0 -2.49936) (layer F.SilkS)
    (effects (font (size 0.8001 0.8001) (thickness 0.14986)))
  )
  (fp_text value Cree_ML-E (at 0 2.60096) (layer F.SilkS)
    (effects (font (size 0.8001 0.8001) (thickness 0.14986)))
  )
  (fp_line (start 1.30048 -1.80086) (end 1.6002 -1.50114) (layer F.SilkS) (width 0.254))
  (fp_line (start 1.09982 -1.80086) (end 1.6002 -1.30048) (layer F.SilkS) (width 0.254))
  (fp_line (start 1.19888 1.04902) (end 1.15062 1.19888) (layer F.SilkS) (width 0.127))
  (fp_line (start 1.15062 1.19888) (end 1.00076 1.34874) (layer F.SilkS) (width 0.127))
  (fp_line (start -1.19888 1.04902) (end -1.15062 1.19888) (layer F.SilkS) (width 0.127))
  (fp_line (start -1.15062 1.19888) (end -1.00076 1.34874) (layer F.SilkS) (width 0.127))
  (fp_line (start 1.19888 -1.04902) (end 1.15062 -1.19888) (layer F.SilkS) (width 0.127))
  (fp_line (start 1.15062 -1.19888) (end 1.00076 -1.34874) (layer F.SilkS) (width 0.127))
  (fp_line (start 0.8509 1.39954) (end 1.00076 1.34874) (layer F.SilkS) (width 0.127))
  (fp_line (start -0.8509 1.39954) (end -1.00076 1.34874) (layer F.SilkS) (width 0.127))
  (fp_line (start 1.00076 -1.34874) (end 0.8509 -1.39954) (layer F.SilkS) (width 0.127))
  (fp_line (start 0.8509 -1.39954) (end -0.8509 -1.39954) (layer F.SilkS) (width 0.127))
  (fp_line (start -0.8509 -1.39954) (end -0.8001 -1.39954) (layer F.SilkS) (width 0.127))
  (fp_line (start 1.19888 1.04902) (end 1.19888 -1.04902) (layer F.SilkS) (width 0.127))
  (fp_line (start -0.8509 1.39954) (end 0.8509 1.39954) (layer F.SilkS) (width 0.127))
  (fp_line (start -1.19888 -1.04902) (end -1.19888 1.04902) (layer F.SilkS) (width 0.127))
  (fp_line (start -0.8509 -1.39954) (end -1.00076 -1.34874) (layer F.SilkS) (width 0.127))
  (fp_line (start -1.00076 -1.34874) (end -1.15062 -1.19888) (layer F.SilkS) (width 0.127))
  (fp_line (start -1.15062 -1.19888) (end -1.19888 -1.04902) (layer F.SilkS) (width 0.127))
  (fp_line (start -1.6002 -1.80086) (end 1.6002 -1.80086) (layer F.SilkS) (width 0.254))
  (fp_line (start 1.6002 -1.80086) (end 1.6002 1.80086) (layer F.SilkS) (width 0.254))
  (fp_line (start 1.6002 1.80086) (end -1.6002 1.80086) (layer F.SilkS) (width 0.254))
  (fp_line (start -1.6002 1.80086) (end -1.6002 -1.80086) (layer F.SilkS) (width 0.254))
  (pad 3 smd rect (at 1.39446 1.02616) (size 1.39446 1.15062) (layers F.Cu F.Paste F.Mask))
  (pad 4 smd rect (at 1.39446 -1.02616) (size 1.39446 1.15062) (layers F.Cu F.Paste F.Mask))
  (pad 2 smd rect (at -1.39446 1.02616) (size 1.39446 1.15062) (layers F.Cu F.Paste F.Mask))
  (pad 1 smd rect (at -1.39446 -1.02616) (size 1.39446 1.15062) (layers F.Cu F.Paste F.Mask))
  (pad 5 smd rect (at 0 0) (size 0.70104 3.2004) (layers F.Cu F.Paste F.Mask))
  (model walter/smd_leds/cree_ml-e.wrl
    (at (xyz 0 0 0))
    (scale (xyz 1 1 1))
    (rotate (xyz 0 0 0))
  )
)
