(module lqfp80-05 (layer F.Cu)
  (descr "LQFP-80, 12x12 0.5mm pitch")
  (fp_text reference U? (at 0 -1.2) (layer F.SilkS)
    (effects (font (size 1 1) (thickness 0.2)))
  )
  (fp_text value LQFP-80_05 (at 0 1.2) (layer F.SilkS)
    (effects (font (size 1 1) (thickness 0.2)))
  )
  (fp_circle (center -4.7 4.7) (end -4.1 4.7) (layer F.SilkS) (width 0.15))
  (fp_line (start -6.5 -5.4) (end -6.5 -6.5) (layer F.SilkS) (width 0.15))
  (fp_line (start -6.5 -6.5) (end -5.4 -6.5) (layer F.SilkS) (width 0.15))
  (fp_line (start 6.5 -6.5) (end 6.5 -5.4) (layer F.SilkS) (width 0.15))
  (fp_line (start 6.5 -6.5) (end 5.4 -6.5) (layer F.SilkS) (width 0.15))
  (fp_line (start 5.4 6.5) (end 6.5 6.5) (layer F.SilkS) (width 0.15))
  (fp_line (start 6.5 6.5) (end 6.5 5.4) (layer F.SilkS) (width 0.15))
  (fp_line (start -6.5 6.4) (end -6.4 6.5) (layer F.SilkS) (width 0.15))
  (fp_line (start -6.2 6.5) (end -6.5 6.2) (layer F.SilkS) (width 0.15))
  (fp_line (start -6.5 6) (end -6 6.5) (layer F.SilkS) (width 0.15))
  (fp_line (start -5.8 6.5) (end -6.5 5.8) (layer F.SilkS) (width 0.15))
  (fp_line (start -6.5 5.6) (end -5.6 6.5) (layer F.SilkS) (width 0.15))
  (fp_line (start -6.5 5.4) (end -6.5 6.5) (layer F.SilkS) (width 0.15))
  (fp_line (start -6.5 6.5) (end -5.4 6.5) (layer F.SilkS) (width 0.15))
  (fp_line (start -5.4 6.5) (end -6.5 5.4) (layer F.SilkS) (width 0.15))
  (fp_line (start 5.6 6) (end 6 5.6) (layer F.SilkS) (width 0.15))
  (fp_line (start 6 5.6) (end 6 -5.6) (layer F.SilkS) (width 0.15))
  (fp_line (start 6 -5.6) (end 5.6 -6) (layer F.SilkS) (width 0.15))
  (fp_line (start 5.6 -6) (end -5.6 -6) (layer F.SilkS) (width 0.15))
  (fp_line (start -5.6 -6) (end -6 -5.6) (layer F.SilkS) (width 0.15))
  (fp_line (start -6 -5.6) (end -6 5.6) (layer F.SilkS) (width 0.15))
  (fp_line (start -6 5.6) (end -5.6 6) (layer F.SilkS) (width 0.15))
  (fp_line (start -5.6 6) (end 5.6 6) (layer F.SilkS) (width 0.15))
  (pad 1 smd rect (at -4.75 6.7) (size 0.2 1.5) (layers F.Cu F.Paste F.Mask))
  (pad 2 smd rect (at -4.25 6.7) (size 0.2 1.5) (layers F.Cu F.Paste F.Mask))
  (pad 3 smd rect (at -3.75 6.7) (size 0.2 1.5) (layers F.Cu F.Paste F.Mask))
  (pad 4 smd rect (at -3.25 6.7) (size 0.2 1.5) (layers F.Cu F.Paste F.Mask))
  (pad 5 smd rect (at -2.75 6.7) (size 0.2 1.5) (layers F.Cu F.Paste F.Mask))
  (pad 6 smd rect (at -2.25 6.7) (size 0.2 1.5) (layers F.Cu F.Paste F.Mask))
  (pad 7 smd rect (at -1.75 6.7) (size 0.2 1.5) (layers F.Cu F.Paste F.Mask))
  (pad 8 smd rect (at -1.25 6.7) (size 0.2 1.5) (layers F.Cu F.Paste F.Mask))
  (pad 9 smd rect (at -0.75 6.7) (size 0.2 1.5) (layers F.Cu F.Paste F.Mask))
  (pad 10 smd rect (at -0.25 6.7) (size 0.2 1.5) (layers F.Cu F.Paste F.Mask))
  (pad 11 smd rect (at 0.25 6.7) (size 0.2 1.5) (layers F.Cu F.Paste F.Mask))
  (pad 12 smd rect (at 0.75 6.7) (size 0.2 1.5) (layers F.Cu F.Paste F.Mask))
  (pad 13 smd rect (at 1.25 6.7) (size 0.2 1.5) (layers F.Cu F.Paste F.Mask))
  (pad 14 smd rect (at 1.75 6.7) (size 0.2 1.5) (layers F.Cu F.Paste F.Mask))
  (pad 15 smd rect (at 2.25 6.7) (size 0.2 1.5) (layers F.Cu F.Paste F.Mask))
  (pad 16 smd rect (at 2.75 6.7) (size 0.2 1.5) (layers F.Cu F.Paste F.Mask))
  (pad 17 smd rect (at 3.25 6.7) (size 0.2 1.5) (layers F.Cu F.Paste F.Mask))
  (pad 18 smd rect (at 3.75 6.7) (size 0.2 1.5) (layers F.Cu F.Paste F.Mask))
  (pad 19 smd rect (at 4.25 6.7) (size 0.2 1.5) (layers F.Cu F.Paste F.Mask))
  (pad 20 smd rect (at 4.75 6.7) (size 0.2 1.5) (layers F.Cu F.Paste F.Mask))
  (pad 21 smd rect (at 6.7 4.75) (size 1.5 0.2) (layers F.Cu F.Paste F.Mask))
  (pad 22 smd rect (at 6.7 4.25) (size 1.5 0.2) (layers F.Cu F.Paste F.Mask))
  (pad 23 smd rect (at 6.7 3.75) (size 1.5 0.2) (layers F.Cu F.Paste F.Mask))
  (pad 24 smd rect (at 6.7 3.25) (size 1.5 0.2) (layers F.Cu F.Paste F.Mask))
  (pad 25 smd rect (at 6.7 2.75) (size 1.5 0.2) (layers F.Cu F.Paste F.Mask))
  (pad 26 smd rect (at 6.7 2.25) (size 1.5 0.2) (layers F.Cu F.Paste F.Mask))
  (pad 27 smd rect (at 6.7 1.75) (size 1.5 0.2) (layers F.Cu F.Paste F.Mask))
  (pad 28 smd rect (at 6.7 1.25) (size 1.5 0.2) (layers F.Cu F.Paste F.Mask))
  (pad 57 smd rect (at -3.25 -6.7) (size 0.2 1.5) (layers F.Cu F.Paste F.Mask))
  (pad 58 smd rect (at -3.75 -6.7) (size 0.2 1.5) (layers F.Cu F.Paste F.Mask))
  (pad 59 smd rect (at -4.25 -6.7) (size 0.2 1.5) (layers F.Cu F.Paste F.Mask))
  (pad 60 smd rect (at -4.75 -6.7) (size 0.2 1.5) (layers F.Cu F.Paste F.Mask))
  (pad 61 smd rect (at -6.7 -4.75) (size 1.5 0.2) (layers F.Cu F.Paste F.Mask))
  (pad 62 smd rect (at -6.7 -4.25) (size 1.5 0.2) (layers F.Cu F.Paste F.Mask))
  (pad 63 smd rect (at -6.7 -3.75) (size 1.5 0.2) (layers F.Cu F.Paste F.Mask))
  (pad 64 smd rect (at -6.7 -3.25) (size 1.5 0.2) (layers F.Cu F.Paste F.Mask))
  (pad 65 smd rect (at -6.7 -2.75) (size 1.5 0.2) (layers F.Cu F.Paste F.Mask))
  (pad 66 smd rect (at -6.7 -2.25) (size 1.5 0.2) (layers F.Cu F.Paste F.Mask))
  (pad 67 smd rect (at -6.7 -1.75) (size 1.5 0.2) (layers F.Cu F.Paste F.Mask))
  (pad 68 smd rect (at -6.7 -1.25) (size 1.5 0.2) (layers F.Cu F.Paste F.Mask))
  (pad 69 smd rect (at -6.7 -0.75) (size 1.5 0.2) (layers F.Cu F.Paste F.Mask))
  (pad 70 smd rect (at -6.7 -0.25) (size 1.5 0.2) (layers F.Cu F.Paste F.Mask))
  (pad 71 smd rect (at -6.7 0.25) (size 1.5 0.2) (layers F.Cu F.Paste F.Mask))
  (pad 72 smd rect (at -6.7 0.75) (size 1.5 0.2) (layers F.Cu F.Paste F.Mask))
  (pad 73 smd rect (at -6.7 1.25) (size 1.5 0.2) (layers F.Cu F.Paste F.Mask))
  (pad 74 smd rect (at -6.7 1.75) (size 1.5 0.2) (layers F.Cu F.Paste F.Mask))
  (pad 75 smd rect (at -6.7 2.25) (size 1.5 0.2) (layers F.Cu F.Paste F.Mask))
  (pad 76 smd rect (at -6.7 2.75) (size 1.5 0.2) (layers F.Cu F.Paste F.Mask))
  (pad 77 smd rect (at -6.7 3.25) (size 1.5 0.2) (layers F.Cu F.Paste F.Mask))
  (pad 78 smd rect (at -6.7 3.75) (size 1.5 0.2) (layers F.Cu F.Paste F.Mask))
  (pad 79 smd rect (at -6.7 4.25) (size 1.5 0.2) (layers F.Cu F.Paste F.Mask))
  (pad 80 smd rect (at -6.7 4.75) (size 1.5 0.2) (layers F.Cu F.Paste F.Mask))
  (pad 29 smd rect (at 6.7 0.75) (size 1.5 0.2) (layers F.Cu F.Paste F.Mask))
  (pad 30 smd rect (at 6.7 0.25) (size 1.5 0.2) (layers F.Cu F.Paste F.Mask))
  (pad 31 smd rect (at 6.7 -0.25) (size 1.5 0.2) (layers F.Cu F.Paste F.Mask))
  (pad 32 smd rect (at 6.7 -0.75) (size 1.5 0.2) (layers F.Cu F.Paste F.Mask))
  (pad 33 smd rect (at 6.7 -1.25) (size 1.5 0.2) (layers F.Cu F.Paste F.Mask))
  (pad 34 smd rect (at 6.7 -1.75) (size 1.5 0.2) (layers F.Cu F.Paste F.Mask))
  (pad 35 smd rect (at 6.7 -2.25) (size 1.5 0.2) (layers F.Cu F.Paste F.Mask))
  (pad 36 smd rect (at 6.7 -2.75) (size 1.5 0.2) (layers F.Cu F.Paste F.Mask))
  (pad 37 smd rect (at 6.7 -3.25) (size 1.5 0.2) (layers F.Cu F.Paste F.Mask))
  (pad 38 smd rect (at 6.7 -3.75) (size 1.5 0.2) (layers F.Cu F.Paste F.Mask))
  (pad 39 smd rect (at 6.7 -4.25) (size 1.5 0.2) (layers F.Cu F.Paste F.Mask))
  (pad 40 smd rect (at 6.7 -4.75) (size 1.5 0.2) (layers F.Cu F.Paste F.Mask))
  (pad 41 smd rect (at 4.75 -6.7) (size 0.2 1.5) (layers F.Cu F.Paste F.Mask))
  (pad 42 smd rect (at 4.25 -6.7) (size 0.2 1.5) (layers F.Cu F.Paste F.Mask))
  (pad 43 smd rect (at 3.75 -6.7) (size 0.2 1.5) (layers F.Cu F.Paste F.Mask))
  (pad 44 smd rect (at 3.25 -6.7) (size 0.2 1.5) (layers F.Cu F.Paste F.Mask))
  (pad 45 smd rect (at 2.75 -6.7) (size 0.2 1.5) (layers F.Cu F.Paste F.Mask))
  (pad 46 smd rect (at 2.25 -6.7) (size 0.2 1.5) (layers F.Cu F.Paste F.Mask))
  (pad 47 smd rect (at 1.75 -6.7) (size 0.2 1.5) (layers F.Cu F.Paste F.Mask))
  (pad 48 smd rect (at 1.25 -6.7) (size 0.2 1.5) (layers F.Cu F.Paste F.Mask))
  (pad 49 smd rect (at 0.75 -6.7) (size 0.2 1.5) (layers F.Cu F.Paste F.Mask))
  (pad 50 smd rect (at 0.25 -6.7) (size 0.2 1.5) (layers F.Cu F.Paste F.Mask))
  (pad 51 smd rect (at -0.25 -6.7) (size 0.2 1.5) (layers F.Cu F.Paste F.Mask))
  (pad 52 smd rect (at -0.75 -6.7) (size 0.2 1.5) (layers F.Cu F.Paste F.Mask))
  (pad 53 smd rect (at -1.25 -6.7) (size 0.2 1.5) (layers F.Cu F.Paste F.Mask))
  (pad 54 smd rect (at -1.75 -6.7) (size 0.2 1.5) (layers F.Cu F.Paste F.Mask))
  (pad 55 smd rect (at -2.25 -6.7) (size 0.2 1.5) (layers F.Cu F.Paste F.Mask))
  (pad 56 smd rect (at -2.75 -6.7) (size 0.2 1.5) (layers F.Cu F.Paste F.Mask))
  (model walter/smd_lqfp/lqfp-80_05.wrl
    (at (xyz 0 0 0))
    (scale (xyz 1 1 1))
    (rotate (xyz 0 0 0))
  )
)
