(module r-pdso-n6 (layer F.Cu) (tedit 5B5AD0A2)
  (descr R-PDSO-N6)
  (solder_mask_margin 0.05)
  (solder_paste_margin -0.05)
  (clearance 0.15)
  (fp_text reference U? (at 0 -1.5) (layer F.SilkS)
    (effects (font (size 0.5 0.5) (thickness 0.1)))
  )
  (fp_text value R-PDSO-N6 (at 0 1.5) (layer F.SilkS)
    (effects (font (size 0.5 0.5) (thickness 0.1)))
  )
  (fp_line (start 0.85 -0.65) (end -0.85 -0.65) (layer F.SilkS) (width 0.127))
  (fp_line (start 0.85 0.65) (end 0.85 -0.65) (layer F.SilkS) (width 0.127))
  (fp_line (start -0.85 0.65) (end 0.85 0.65) (layer F.SilkS) (width 0.127))
  (fp_line (start -0.85 -0.65) (end -0.85 0.65) (layer F.SilkS) (width 0.127))
  (fp_line (start -1.2 0.5) (end -0.7 1) (layer F.SilkS) (width 0.127))
  (fp_line (start -0.8 1) (end -1.2 0.6) (layer F.SilkS) (width 0.127))
  (fp_line (start -1.2 0.7) (end -0.9 1) (layer F.SilkS) (width 0.127))
  (fp_line (start -1 1) (end -1.2 0.8) (layer F.SilkS) (width 0.127))
  (fp_line (start -1.2 0.9) (end -1.1 1) (layer F.SilkS) (width 0.127))
  (fp_circle (center -0.5 0.3) (end -0.7 0.3) (layer F.SilkS) (width 0.127))
  (fp_circle (center -0.5 0.3) (end -0.6 0.3) (layer F.SilkS) (width 0.3))
  (fp_line (start 0.5 0.65) (end 0.5 0.85) (layer F.SilkS) (width 0.127))
  (fp_line (start 0 0.65) (end 0 0.85) (layer F.SilkS) (width 0.127))
  (fp_line (start -0.5 0.65) (end -0.5 0.85) (layer F.SilkS) (width 0.127))
  (fp_line (start -0.5 -0.65) (end -0.5 -0.85) (layer F.SilkS) (width 0.127))
  (fp_line (start 0 -0.65) (end 0 -0.85) (layer F.SilkS) (width 0.127))
  (fp_line (start 0.5 -0.65) (end 0.5 -0.85) (layer F.SilkS) (width 0.127))
  (fp_line (start -0.7 1) (end -1.2 1) (layer F.SilkS) (width 0.127))
  (fp_line (start -1.2 1) (end -1.2 0.5) (layer F.SilkS) (width 0.127))
  (pad 6 smd rect (at -0.5 -0.675) (size 0.3 0.45) (layers F.Cu F.Paste F.Mask))
  (pad 5 smd rect (at 0 -0.675) (size 0.3 0.45) (layers F.Cu F.Paste F.Mask))
  (pad 4 smd rect (at 0.5 -0.675) (size 0.3 0.45) (layers F.Cu F.Paste F.Mask))
  (pad 3 smd rect (at 0.5 0.675) (size 0.3 0.45) (layers F.Cu F.Paste F.Mask))
  (pad 2 smd rect (at 0 0.675) (size 0.3 0.45) (layers F.Cu F.Paste F.Mask))
  (pad 1 smd rect (at -0.5 0.675) (size 0.3 0.45) (layers F.Cu F.Paste F.Mask))
  (model walter/smd_dil/r-pdso-n6.wrl
    (at (xyz 0 0 0))
    (scale (xyz 1 1 1))
    (rotate (xyz 0 0 0))
  )
)
