(module lfbga217 (layer F.Cu) (tedit 54F8E36B)
  (descr "217 pin Low Profile Fine Pitch BGA (mirrored pin numbering)")
  (fp_text reference LFBGA-217 (at 0 8.7) (layer F.SilkS)
    (effects (font (size 1 1) (thickness 0.2)))
  )
  (fp_text value U*** (at 0 -8.5) (layer F.SilkS)
    (effects (font (size 1 1) (thickness 0.2)))
  )
  (fp_line (start -8.1 5.8) (end -8.1 8.1) (layer F.SilkS) (width 0.127))
  (fp_line (start -8.1 8.1) (end -5.8 8.1) (layer F.SilkS) (width 0.127))
  (fp_line (start -5.9 8) (end -8 8) (layer F.SilkS) (width 0.127))
  (fp_line (start -8 8) (end -8 5.9) (layer F.SilkS) (width 0.127))
  (fp_line (start -7.9 7.9) (end -6 7.9) (layer F.SilkS) (width 0.127))
  (fp_line (start -7.9 6) (end -7.9 7.9) (layer F.SilkS) (width 0.127))
  (fp_line (start -6 7.9) (end -5.7 8.2) (layer F.SilkS) (width 0.127))
  (fp_line (start -5.7 8.2) (end -8.2 8.2) (layer F.SilkS) (width 0.127))
  (fp_line (start -8.2 8.2) (end -8.2 5.7) (layer F.SilkS) (width 0.127))
  (fp_line (start -8.2 5.7) (end -7.9 6) (layer F.SilkS) (width 0.127))
  (fp_line (start -7.5 6.4) (end -7.5 7.5) (layer F.SilkS) (width 0.127))
  (fp_line (start -7.5 7.5) (end -6.4 7.5) (layer F.SilkS) (width 0.127))
  (fp_line (start -7.5 -7.5) (end 7.5 -7.5) (layer F.SilkS) (width 0.127))
  (fp_line (start 7.5 -7.5) (end 7.5 7.5) (layer F.SilkS) (width 0.127))
  (fp_line (start 7.5 7.5) (end -6.4 7.5) (layer F.SilkS) (width 0.127))
  (fp_line (start -7.5 6.4) (end -7.5 -7.5) (layer F.SilkS) (width 0.127))
  (pad J9 smd circle (at 0 0) (size 0.35 0.35) (layers F.Cu F.Paste F.Mask)
    (solder_mask_margin 0.07) (solder_paste_margin -0.05))
  (pad J10 smd circle (at 0.8 0) (size 0.35 0.35) (layers F.Cu F.Paste F.Mask)
    (solder_mask_margin 0.07) (solder_paste_margin -0.05))
  (pad K8 smd circle (at -0.8 -0.8) (size 0.35 0.35) (layers F.Cu F.Paste F.Mask)
    (solder_mask_margin 0.07) (solder_paste_margin -0.05))
  (pad K9 smd circle (at 0 -0.8) (size 0.35 0.35) (layers F.Cu F.Paste F.Mask)
    (solder_mask_margin 0.07) (solder_paste_margin -0.05))
  (pad K10 smd circle (at 0.8 -0.8) (size 0.35 0.35) (layers F.Cu F.Paste F.Mask)
    (solder_mask_margin 0.07) (solder_paste_margin -0.05))
  (pad J8 smd circle (at -0.8 0) (size 0.35 0.35) (layers F.Cu F.Paste F.Mask)
    (solder_mask_margin 0.07) (solder_paste_margin -0.05))
  (pad H8 smd circle (at -0.8 0.8) (size 0.35 0.35) (layers F.Cu F.Paste F.Mask)
    (solder_mask_margin 0.07) (solder_paste_margin -0.05))
  (pad H9 smd circle (at 0 0.8) (size 0.35 0.35) (layers F.Cu F.Paste F.Mask)
    (solder_mask_margin 0.07) (solder_paste_margin -0.05))
  (pad H10 smd circle (at 0.8 0.8) (size 0.35 0.35) (layers F.Cu F.Paste F.Mask)
    (solder_mask_margin 0.07) (solder_paste_margin -0.05))
  (pad D9 smd circle (at 0 4) (size 0.35 0.35) (layers F.Cu F.Paste F.Mask)
    (solder_mask_margin 0.07) (solder_paste_margin -0.05))
  (pad D10 smd circle (at 0.8 4) (size 0.35 0.35) (layers F.Cu F.Paste F.Mask)
    (solder_mask_margin 0.07) (solder_paste_margin -0.05))
  (pad D11 smd circle (at 1.6 4) (size 0.35 0.35) (layers F.Cu F.Paste F.Mask)
    (solder_mask_margin 0.07) (solder_paste_margin -0.05))
  (pad D12 smd circle (at 2.4 4) (size 0.35 0.35) (layers F.Cu F.Paste F.Mask)
    (solder_mask_margin 0.07) (solder_paste_margin -0.05))
  (pad D13 smd circle (at 3.2 4) (size 0.35 0.35) (layers F.Cu F.Paste F.Mask)
    (solder_mask_margin 0.07) (solder_paste_margin -0.05))
  (pad D14 smd circle (at 4 4) (size 0.35 0.35) (layers F.Cu F.Paste F.Mask)
    (solder_mask_margin 0.07) (solder_paste_margin -0.05))
  (pad D15 smd circle (at 4.8 4) (size 0.35 0.35) (layers F.Cu F.Paste F.Mask)
    (solder_mask_margin 0.07) (solder_paste_margin -0.05))
  (pad D16 smd circle (at 5.6 4) (size 0.35 0.35) (layers F.Cu F.Paste F.Mask)
    (solder_mask_margin 0.07) (solder_paste_margin -0.05))
  (pad D17 smd circle (at 6.4 4) (size 0.35 0.35) (layers F.Cu F.Paste F.Mask)
    (solder_mask_margin 0.07) (solder_paste_margin -0.05))
  (pad D1 smd circle (at -6.4 4) (size 0.35 0.35) (layers F.Cu F.Paste F.Mask)
    (solder_mask_margin 0.07) (solder_paste_margin -0.05))
  (pad D2 smd circle (at -5.6 4) (size 0.35 0.35) (layers F.Cu F.Paste F.Mask)
    (solder_mask_margin 0.07) (solder_paste_margin -0.05))
  (pad D3 smd circle (at -4.8 4) (size 0.35 0.35) (layers F.Cu F.Paste F.Mask)
    (solder_mask_margin 0.07) (solder_paste_margin -0.05))
  (pad D4 smd circle (at -4 4) (size 0.35 0.35) (layers F.Cu F.Paste F.Mask)
    (solder_mask_margin 0.07) (solder_paste_margin -0.05))
  (pad D5 smd circle (at -3.2 4) (size 0.35 0.35) (layers F.Cu F.Paste F.Mask)
    (solder_mask_margin 0.07) (solder_paste_margin -0.05))
  (pad D6 smd circle (at -2.4 4) (size 0.35 0.35) (layers F.Cu F.Paste F.Mask)
    (solder_mask_margin 0.07) (solder_paste_margin -0.05))
  (pad D7 smd circle (at -1.6 4) (size 0.35 0.35) (layers F.Cu F.Paste F.Mask)
    (solder_mask_margin 0.07) (solder_paste_margin -0.05))
  (pad D8 smd circle (at -0.8 4) (size 0.35 0.35) (layers F.Cu F.Paste F.Mask)
    (solder_mask_margin 0.07) (solder_paste_margin -0.05))
  (pad C1 smd circle (at -6.4 4.8) (size 0.35 0.35) (layers F.Cu F.Paste F.Mask)
    (solder_mask_margin 0.07) (solder_paste_margin -0.05))
  (pad C2 smd circle (at -5.6 4.8) (size 0.35 0.35) (layers F.Cu F.Paste F.Mask)
    (solder_mask_margin 0.07) (solder_paste_margin -0.05))
  (pad C3 smd circle (at -4.8 4.8) (size 0.35 0.35) (layers F.Cu F.Paste F.Mask)
    (solder_mask_margin 0.07) (solder_paste_margin -0.05))
  (pad C4 smd circle (at -4 4.8) (size 0.35 0.35) (layers F.Cu F.Paste F.Mask)
    (solder_mask_margin 0.07) (solder_paste_margin -0.05))
  (pad C5 smd circle (at -3.2 4.8) (size 0.35 0.35) (layers F.Cu F.Paste F.Mask)
    (solder_mask_margin 0.07) (solder_paste_margin -0.05))
  (pad C6 smd circle (at -2.4 4.8) (size 0.35 0.35) (layers F.Cu F.Paste F.Mask)
    (solder_mask_margin 0.07) (solder_paste_margin -0.05))
  (pad C7 smd circle (at -1.6 4.8) (size 0.35 0.35) (layers F.Cu F.Paste F.Mask)
    (solder_mask_margin 0.07) (solder_paste_margin -0.05))
  (pad C8 smd circle (at -0.8 4.8) (size 0.35 0.35) (layers F.Cu F.Paste F.Mask)
    (solder_mask_margin 0.07) (solder_paste_margin -0.05))
  (pad C9 smd circle (at 0 4.8) (size 0.35 0.35) (layers F.Cu F.Paste F.Mask)
    (solder_mask_margin 0.07) (solder_paste_margin -0.05))
  (pad C10 smd circle (at 0.8 4.8) (size 0.35 0.35) (layers F.Cu F.Paste F.Mask)
    (solder_mask_margin 0.07) (solder_paste_margin -0.05))
  (pad C11 smd circle (at 1.6 4.8) (size 0.35 0.35) (layers F.Cu F.Paste F.Mask)
    (solder_mask_margin 0.07) (solder_paste_margin -0.05))
  (pad C12 smd circle (at 2.4 4.8) (size 0.35 0.35) (layers F.Cu F.Paste F.Mask)
    (solder_mask_margin 0.07) (solder_paste_margin -0.05))
  (pad C13 smd circle (at 3.2 4.8) (size 0.35 0.35) (layers F.Cu F.Paste F.Mask)
    (solder_mask_margin 0.07) (solder_paste_margin -0.05))
  (pad C14 smd circle (at 4 4.8) (size 0.35 0.35) (layers F.Cu F.Paste F.Mask)
    (solder_mask_margin 0.07) (solder_paste_margin -0.05))
  (pad C15 smd circle (at 4.8 4.8) (size 0.35 0.35) (layers F.Cu F.Paste F.Mask)
    (solder_mask_margin 0.07) (solder_paste_margin -0.05))
  (pad C16 smd circle (at 5.6 4.8) (size 0.35 0.35) (layers F.Cu F.Paste F.Mask)
    (solder_mask_margin 0.07) (solder_paste_margin -0.05))
  (pad C17 smd circle (at 6.4 4.8) (size 0.35 0.35) (layers F.Cu F.Paste F.Mask)
    (solder_mask_margin 0.07) (solder_paste_margin -0.05))
  (pad B1 smd circle (at -6.4 5.6) (size 0.35 0.35) (layers F.Cu F.Paste F.Mask)
    (solder_mask_margin 0.07) (solder_paste_margin -0.05))
  (pad B2 smd circle (at -5.6 5.6) (size 0.35 0.35) (layers F.Cu F.Paste F.Mask)
    (solder_mask_margin 0.07) (solder_paste_margin -0.05))
  (pad B3 smd circle (at -4.8 5.6) (size 0.35 0.35) (layers F.Cu F.Paste F.Mask)
    (solder_mask_margin 0.07) (solder_paste_margin -0.05))
  (pad B4 smd circle (at -4 5.6) (size 0.35 0.35) (layers F.Cu F.Paste F.Mask)
    (solder_mask_margin 0.07) (solder_paste_margin -0.05))
  (pad B5 smd circle (at -3.2 5.6) (size 0.35 0.35) (layers F.Cu F.Paste F.Mask)
    (solder_mask_margin 0.07) (solder_paste_margin -0.05))
  (pad B6 smd circle (at -2.4 5.6) (size 0.35 0.35) (layers F.Cu F.Paste F.Mask)
    (solder_mask_margin 0.07) (solder_paste_margin -0.05))
  (pad B7 smd circle (at -1.6 5.6) (size 0.35 0.35) (layers F.Cu F.Paste F.Mask)
    (solder_mask_margin 0.07) (solder_paste_margin -0.05))
  (pad B8 smd circle (at -0.8 5.6) (size 0.35 0.35) (layers F.Cu F.Paste F.Mask)
    (solder_mask_margin 0.07) (solder_paste_margin -0.05))
  (pad B9 smd circle (at 0 5.6) (size 0.35 0.35) (layers F.Cu F.Paste F.Mask)
    (solder_mask_margin 0.07) (solder_paste_margin -0.05))
  (pad B10 smd circle (at 0.8 5.6) (size 0.35 0.35) (layers F.Cu F.Paste F.Mask)
    (solder_mask_margin 0.07) (solder_paste_margin -0.05))
  (pad B11 smd circle (at 1.6 5.6) (size 0.35 0.35) (layers F.Cu F.Paste F.Mask)
    (solder_mask_margin 0.07) (solder_paste_margin -0.05))
  (pad B12 smd circle (at 2.4 5.6) (size 0.35 0.35) (layers F.Cu F.Paste F.Mask)
    (solder_mask_margin 0.07) (solder_paste_margin -0.05))
  (pad B13 smd circle (at 3.2 5.6) (size 0.35 0.35) (layers F.Cu F.Paste F.Mask)
    (solder_mask_margin 0.07) (solder_paste_margin -0.05))
  (pad B14 smd circle (at 4 5.6) (size 0.35 0.35) (layers F.Cu F.Paste F.Mask)
    (solder_mask_margin 0.07) (solder_paste_margin -0.05))
  (pad B15 smd circle (at 4.8 5.6) (size 0.35 0.35) (layers F.Cu F.Paste F.Mask)
    (solder_mask_margin 0.07) (solder_paste_margin -0.05))
  (pad B16 smd circle (at 5.6 5.6) (size 0.35 0.35) (layers F.Cu F.Paste F.Mask)
    (solder_mask_margin 0.07) (solder_paste_margin -0.05))
  (pad B17 smd circle (at 6.4 5.6) (size 0.35 0.35) (layers F.Cu F.Paste F.Mask)
    (solder_mask_margin 0.07) (solder_paste_margin -0.05))
  (pad A1 smd circle (at -6.4 6.4) (size 0.35 0.35) (layers F.Cu F.Paste F.Mask)
    (solder_mask_margin 0.07) (solder_paste_margin -0.05))
  (pad A2 smd circle (at -5.6 6.4) (size 0.35 0.35) (layers F.Cu F.Paste F.Mask)
    (solder_mask_margin 0.07) (solder_paste_margin -0.05))
  (pad A3 smd circle (at -4.8 6.4) (size 0.35 0.35) (layers F.Cu F.Paste F.Mask)
    (solder_mask_margin 0.07) (solder_paste_margin -0.05))
  (pad A4 smd circle (at -4 6.4) (size 0.35 0.35) (layers F.Cu F.Paste F.Mask)
    (solder_mask_margin 0.07) (solder_paste_margin -0.05))
  (pad A5 smd circle (at -3.2 6.4) (size 0.35 0.35) (layers F.Cu F.Paste F.Mask)
    (solder_mask_margin 0.07) (solder_paste_margin -0.05))
  (pad A6 smd circle (at -2.4 6.4) (size 0.35 0.35) (layers F.Cu F.Paste F.Mask)
    (solder_mask_margin 0.07) (solder_paste_margin -0.05))
  (pad A7 smd circle (at -1.6 6.4) (size 0.35 0.35) (layers F.Cu F.Paste F.Mask)
    (solder_mask_margin 0.07) (solder_paste_margin -0.05))
  (pad A8 smd circle (at -0.8 6.4) (size 0.35 0.35) (layers F.Cu F.Paste F.Mask)
    (solder_mask_margin 0.07) (solder_paste_margin -0.05))
  (pad A9 smd circle (at 0 6.4) (size 0.35 0.35) (layers F.Cu F.Paste F.Mask)
    (solder_mask_margin 0.07) (solder_paste_margin -0.05))
  (pad A10 smd circle (at 0.8 6.4) (size 0.35 0.35) (layers F.Cu F.Paste F.Mask)
    (solder_mask_margin 0.07) (solder_paste_margin -0.05))
  (pad A11 smd circle (at 1.6 6.4) (size 0.35 0.35) (layers F.Cu F.Paste F.Mask)
    (solder_mask_margin 0.07) (solder_paste_margin -0.05))
  (pad A12 smd circle (at 2.4 6.4) (size 0.35 0.35) (layers F.Cu F.Paste F.Mask)
    (solder_mask_margin 0.07) (solder_paste_margin -0.05))
  (pad A13 smd circle (at 3.2 6.4) (size 0.35 0.35) (layers F.Cu F.Paste F.Mask)
    (solder_mask_margin 0.07) (solder_paste_margin -0.05))
  (pad A14 smd circle (at 4 6.4) (size 0.35 0.35) (layers F.Cu F.Paste F.Mask)
    (solder_mask_margin 0.07) (solder_paste_margin -0.05))
  (pad A15 smd circle (at 4.8 6.4) (size 0.35 0.35) (layers F.Cu F.Paste F.Mask)
    (solder_mask_margin 0.07) (solder_paste_margin -0.05))
  (pad A16 smd circle (at 5.6 6.4) (size 0.35 0.35) (layers F.Cu F.Paste F.Mask)
    (solder_mask_margin 0.07) (solder_paste_margin -0.05))
  (pad A17 smd circle (at 6.4 6.4) (size 0.35 0.35) (layers F.Cu F.Paste F.Mask)
    (solder_mask_margin 0.07) (solder_paste_margin -0.05))
  (pad E1 smd circle (at -6.4 3.2) (size 0.35 0.35) (layers F.Cu F.Paste F.Mask)
    (solder_mask_margin 0.07) (solder_paste_margin -0.05))
  (pad E2 smd circle (at -5.6 3.2) (size 0.35 0.35) (layers F.Cu F.Paste F.Mask)
    (solder_mask_margin 0.07) (solder_paste_margin -0.05))
  (pad E3 smd circle (at -4.8 3.2) (size 0.35 0.35) (layers F.Cu F.Paste F.Mask)
    (solder_mask_margin 0.07) (solder_paste_margin -0.05))
  (pad E4 smd circle (at -4 3.2) (size 0.35 0.35) (layers F.Cu F.Paste F.Mask)
    (solder_mask_margin 0.07) (solder_paste_margin -0.05))
  (pad E14 smd circle (at 4 3.2) (size 0.35 0.35) (layers F.Cu F.Paste F.Mask)
    (solder_mask_margin 0.07) (solder_paste_margin -0.05))
  (pad E15 smd circle (at 4.8 3.2) (size 0.35 0.35) (layers F.Cu F.Paste F.Mask)
    (solder_mask_margin 0.07) (solder_paste_margin -0.05))
  (pad E16 smd circle (at 5.6 3.2) (size 0.35 0.35) (layers F.Cu F.Paste F.Mask)
    (solder_mask_margin 0.07) (solder_paste_margin -0.05))
  (pad E17 smd circle (at 6.4 3.2) (size 0.35 0.35) (layers F.Cu F.Paste F.Mask)
    (solder_mask_margin 0.07) (solder_paste_margin -0.05))
  (pad F1 smd circle (at -6.4 2.4) (size 0.35 0.35) (layers F.Cu F.Paste F.Mask)
    (solder_mask_margin 0.07) (solder_paste_margin -0.05))
  (pad F2 smd circle (at -5.6 2.4) (size 0.35 0.35) (layers F.Cu F.Paste F.Mask)
    (solder_mask_margin 0.07) (solder_paste_margin -0.05))
  (pad F3 smd circle (at -4.8 2.4) (size 0.35 0.35) (layers F.Cu F.Paste F.Mask)
    (solder_mask_margin 0.07) (solder_paste_margin -0.05))
  (pad F4 smd circle (at -4 2.4) (size 0.35 0.35) (layers F.Cu F.Paste F.Mask)
    (solder_mask_margin 0.07) (solder_paste_margin -0.05))
  (pad F14 smd circle (at 4 2.4) (size 0.35 0.35) (layers F.Cu F.Paste F.Mask)
    (solder_mask_margin 0.07) (solder_paste_margin -0.05))
  (pad F15 smd circle (at 4.8 2.4) (size 0.35 0.35) (layers F.Cu F.Paste F.Mask)
    (solder_mask_margin 0.07) (solder_paste_margin -0.05))
  (pad F16 smd circle (at 5.6 2.4) (size 0.35 0.35) (layers F.Cu F.Paste F.Mask)
    (solder_mask_margin 0.07) (solder_paste_margin -0.05))
  (pad F17 smd circle (at 6.4 2.4) (size 0.35 0.35) (layers F.Cu F.Paste F.Mask)
    (solder_mask_margin 0.07) (solder_paste_margin -0.05))
  (pad G1 smd circle (at -6.4 1.6) (size 0.35 0.35) (layers F.Cu F.Paste F.Mask)
    (solder_mask_margin 0.07) (solder_paste_margin -0.05))
  (pad G2 smd circle (at -5.6 1.6) (size 0.35 0.35) (layers F.Cu F.Paste F.Mask)
    (solder_mask_margin 0.07) (solder_paste_margin -0.05))
  (pad G3 smd circle (at -4.8 1.6) (size 0.35 0.35) (layers F.Cu F.Paste F.Mask)
    (solder_mask_margin 0.07) (solder_paste_margin -0.05))
  (pad G4 smd circle (at -4 1.6) (size 0.35 0.35) (layers F.Cu F.Paste F.Mask)
    (solder_mask_margin 0.07) (solder_paste_margin -0.05))
  (pad G14 smd circle (at 4 1.6) (size 0.35 0.35) (layers F.Cu F.Paste F.Mask)
    (solder_mask_margin 0.07) (solder_paste_margin -0.05))
  (pad G15 smd circle (at 4.8 1.6) (size 0.35 0.35) (layers F.Cu F.Paste F.Mask)
    (solder_mask_margin 0.07) (solder_paste_margin -0.05))
  (pad G16 smd circle (at 5.6 1.6) (size 0.35 0.35) (layers F.Cu F.Paste F.Mask)
    (solder_mask_margin 0.07) (solder_paste_margin -0.05))
  (pad G17 smd circle (at 6.4 1.6) (size 0.35 0.35) (layers F.Cu F.Paste F.Mask)
    (solder_mask_margin 0.07) (solder_paste_margin -0.05))
  (pad H1 smd circle (at -6.4 0.8) (size 0.35 0.35) (layers F.Cu F.Paste F.Mask)
    (solder_mask_margin 0.07) (solder_paste_margin -0.05))
  (pad H2 smd circle (at -5.6 0.8) (size 0.35 0.35) (layers F.Cu F.Paste F.Mask)
    (solder_mask_margin 0.07) (solder_paste_margin -0.05))
  (pad H3 smd circle (at -4.8 0.8) (size 0.35 0.35) (layers F.Cu F.Paste F.Mask)
    (solder_mask_margin 0.07) (solder_paste_margin -0.05))
  (pad H4 smd circle (at -4 0.8) (size 0.35 0.35) (layers F.Cu F.Paste F.Mask)
    (solder_mask_margin 0.07) (solder_paste_margin -0.05))
  (pad H14 smd circle (at 4 0.8) (size 0.35 0.35) (layers F.Cu F.Paste F.Mask)
    (solder_mask_margin 0.07) (solder_paste_margin -0.05))
  (pad H15 smd circle (at 4.8 0.8) (size 0.35 0.35) (layers F.Cu F.Paste F.Mask)
    (solder_mask_margin 0.07) (solder_paste_margin -0.05))
  (pad H16 smd circle (at 5.6 0.8) (size 0.35 0.35) (layers F.Cu F.Paste F.Mask)
    (solder_mask_margin 0.07) (solder_paste_margin -0.05))
  (pad H17 smd circle (at 6.4 0.8) (size 0.35 0.35) (layers F.Cu F.Paste F.Mask)
    (solder_mask_margin 0.07) (solder_paste_margin -0.05))
  (pad J1 smd circle (at -6.4 0) (size 0.35 0.35) (layers F.Cu F.Paste F.Mask)
    (solder_mask_margin 0.07) (solder_paste_margin -0.05))
  (pad J2 smd circle (at -5.6 0) (size 0.35 0.35) (layers F.Cu F.Paste F.Mask)
    (solder_mask_margin 0.07) (solder_paste_margin -0.05))
  (pad J3 smd circle (at -4.8 0) (size 0.35 0.35) (layers F.Cu F.Paste F.Mask)
    (solder_mask_margin 0.07) (solder_paste_margin -0.05))
  (pad J4 smd circle (at -4 0) (size 0.35 0.35) (layers F.Cu F.Paste F.Mask)
    (solder_mask_margin 0.07) (solder_paste_margin -0.05))
  (pad J14 smd circle (at 4 0) (size 0.35 0.35) (layers F.Cu F.Paste F.Mask)
    (solder_mask_margin 0.07) (solder_paste_margin -0.05))
  (pad J15 smd circle (at 4.8 0) (size 0.35 0.35) (layers F.Cu F.Paste F.Mask)
    (solder_mask_margin 0.07) (solder_paste_margin -0.05))
  (pad J16 smd circle (at 5.6 0) (size 0.35 0.35) (layers F.Cu F.Paste F.Mask)
    (solder_mask_margin 0.07) (solder_paste_margin -0.05))
  (pad J17 smd circle (at 6.4 0) (size 0.35 0.35) (layers F.Cu F.Paste F.Mask)
    (solder_mask_margin 0.07) (solder_paste_margin -0.05))
  (pad K1 smd circle (at -6.4 -0.8) (size 0.35 0.35) (layers F.Cu F.Paste F.Mask)
    (solder_mask_margin 0.07) (solder_paste_margin -0.05))
  (pad K2 smd circle (at -5.6 -0.8) (size 0.35 0.35) (layers F.Cu F.Paste F.Mask)
    (solder_mask_margin 0.07) (solder_paste_margin -0.05))
  (pad K3 smd circle (at -4.8 -0.8) (size 0.35 0.35) (layers F.Cu F.Paste F.Mask)
    (solder_mask_margin 0.07) (solder_paste_margin -0.05))
  (pad K4 smd circle (at -4 -0.8) (size 0.35 0.35) (layers F.Cu F.Paste F.Mask)
    (solder_mask_margin 0.07) (solder_paste_margin -0.05))
  (pad K14 smd circle (at 4 -0.8) (size 0.35 0.35) (layers F.Cu F.Paste F.Mask)
    (solder_mask_margin 0.07) (solder_paste_margin -0.05))
  (pad K15 smd circle (at 4.8 -0.8) (size 0.35 0.35) (layers F.Cu F.Paste F.Mask)
    (solder_mask_margin 0.07) (solder_paste_margin -0.05))
  (pad K16 smd circle (at 5.6 -0.8) (size 0.35 0.35) (layers F.Cu F.Paste F.Mask)
    (solder_mask_margin 0.07) (solder_paste_margin -0.05))
  (pad K17 smd circle (at 6.4 -0.8) (size 0.35 0.35) (layers F.Cu F.Paste F.Mask)
    (solder_mask_margin 0.07) (solder_paste_margin -0.05))
  (pad L1 smd circle (at -6.4 -1.6) (size 0.35 0.35) (layers F.Cu F.Paste F.Mask)
    (solder_mask_margin 0.07) (solder_paste_margin -0.05))
  (pad L2 smd circle (at -5.6 -1.6) (size 0.35 0.35) (layers F.Cu F.Paste F.Mask)
    (solder_mask_margin 0.07) (solder_paste_margin -0.05))
  (pad L3 smd circle (at -4.8 -1.6) (size 0.35 0.35) (layers F.Cu F.Paste F.Mask)
    (solder_mask_margin 0.07) (solder_paste_margin -0.05))
  (pad L4 smd circle (at -4 -1.6) (size 0.35 0.35) (layers F.Cu F.Paste F.Mask)
    (solder_mask_margin 0.07) (solder_paste_margin -0.05))
  (pad L14 smd circle (at 4 -1.6) (size 0.35 0.35) (layers F.Cu F.Paste F.Mask)
    (solder_mask_margin 0.07) (solder_paste_margin -0.05))
  (pad L15 smd circle (at 4.8 -1.6) (size 0.35 0.35) (layers F.Cu F.Paste F.Mask)
    (solder_mask_margin 0.07) (solder_paste_margin -0.05))
  (pad L16 smd circle (at 5.6 -1.6) (size 0.35 0.35) (layers F.Cu F.Paste F.Mask)
    (solder_mask_margin 0.07) (solder_paste_margin -0.05))
  (pad L17 smd circle (at 6.4 -1.6) (size 0.35 0.35) (layers F.Cu F.Paste F.Mask)
    (solder_mask_margin 0.07) (solder_paste_margin -0.05))
  (pad M1 smd circle (at -6.4 -2.4) (size 0.35 0.35) (layers F.Cu F.Paste F.Mask)
    (solder_mask_margin 0.07) (solder_paste_margin -0.05))
  (pad M2 smd circle (at -5.6 -2.4) (size 0.35 0.35) (layers F.Cu F.Paste F.Mask)
    (solder_mask_margin 0.07) (solder_paste_margin -0.05))
  (pad M3 smd circle (at -4.8 -2.4) (size 0.35 0.35) (layers F.Cu F.Paste F.Mask)
    (solder_mask_margin 0.07) (solder_paste_margin -0.05))
  (pad M4 smd circle (at -4 -2.4) (size 0.35 0.35) (layers F.Cu F.Paste F.Mask)
    (solder_mask_margin 0.07) (solder_paste_margin -0.05))
  (pad M14 smd circle (at 4 -2.4) (size 0.35 0.35) (layers F.Cu F.Paste F.Mask)
    (solder_mask_margin 0.07) (solder_paste_margin -0.05))
  (pad M15 smd circle (at 4.8 -2.4) (size 0.35 0.35) (layers F.Cu F.Paste F.Mask)
    (solder_mask_margin 0.07) (solder_paste_margin -0.05))
  (pad M16 smd circle (at 5.6 -2.4) (size 0.35 0.35) (layers F.Cu F.Paste F.Mask)
    (solder_mask_margin 0.07) (solder_paste_margin -0.05))
  (pad M17 smd circle (at 6.4 -2.4) (size 0.35 0.35) (layers F.Cu F.Paste F.Mask)
    (solder_mask_margin 0.07) (solder_paste_margin -0.05))
  (pad N1 smd circle (at -6.4 -3.2) (size 0.35 0.35) (layers F.Cu F.Paste F.Mask)
    (solder_mask_margin 0.07) (solder_paste_margin -0.05))
  (pad N2 smd circle (at -5.6 -3.2) (size 0.35 0.35) (layers F.Cu F.Paste F.Mask)
    (solder_mask_margin 0.07) (solder_paste_margin -0.05))
  (pad N3 smd circle (at -4.8 -3.2) (size 0.35 0.35) (layers F.Cu F.Paste F.Mask)
    (solder_mask_margin 0.07) (solder_paste_margin -0.05))
  (pad N4 smd circle (at -4 -3.2) (size 0.35 0.35) (layers F.Cu F.Paste F.Mask)
    (solder_mask_margin 0.07) (solder_paste_margin -0.05))
  (pad N14 smd circle (at 4 -3.2) (size 0.35 0.35) (layers F.Cu F.Paste F.Mask)
    (solder_mask_margin 0.07) (solder_paste_margin -0.05))
  (pad N15 smd circle (at 4.8 -3.2) (size 0.35 0.35) (layers F.Cu F.Paste F.Mask)
    (solder_mask_margin 0.07) (solder_paste_margin -0.05))
  (pad N16 smd circle (at 5.6 -3.2) (size 0.35 0.35) (layers F.Cu F.Paste F.Mask)
    (solder_mask_margin 0.07) (solder_paste_margin -0.05))
  (pad N17 smd circle (at 6.4 -3.2) (size 0.35 0.35) (layers F.Cu F.Paste F.Mask)
    (solder_mask_margin 0.07) (solder_paste_margin -0.05))
  (pad P1 smd circle (at -6.4 -4) (size 0.35 0.35) (layers F.Cu F.Paste F.Mask)
    (solder_mask_margin 0.07) (solder_paste_margin -0.05))
  (pad P2 smd circle (at -5.6 -4) (size 0.35 0.35) (layers F.Cu F.Paste F.Mask)
    (solder_mask_margin 0.07) (solder_paste_margin -0.05))
  (pad P3 smd circle (at -4.8 -4) (size 0.35 0.35) (layers F.Cu F.Paste F.Mask)
    (solder_mask_margin 0.07) (solder_paste_margin -0.05))
  (pad P4 smd circle (at -4 -4) (size 0.35 0.35) (layers F.Cu F.Paste F.Mask)
    (solder_mask_margin 0.07) (solder_paste_margin -0.05))
  (pad P5 smd circle (at -3.2 -4) (size 0.35 0.35) (layers F.Cu F.Paste F.Mask)
    (solder_mask_margin 0.07) (solder_paste_margin -0.05))
  (pad P6 smd circle (at -2.4 -4) (size 0.35 0.35) (layers F.Cu F.Paste F.Mask)
    (solder_mask_margin 0.07) (solder_paste_margin -0.05))
  (pad P7 smd circle (at -1.6 -4) (size 0.35 0.35) (layers F.Cu F.Paste F.Mask)
    (solder_mask_margin 0.07) (solder_paste_margin -0.05))
  (pad P8 smd circle (at -0.8 -4) (size 0.35 0.35) (layers F.Cu F.Paste F.Mask)
    (solder_mask_margin 0.07) (solder_paste_margin -0.05))
  (pad P9 smd circle (at 0 -4) (size 0.35 0.35) (layers F.Cu F.Paste F.Mask)
    (solder_mask_margin 0.07) (solder_paste_margin -0.05))
  (pad P10 smd circle (at 0.8 -4) (size 0.35 0.35) (layers F.Cu F.Paste F.Mask)
    (solder_mask_margin 0.07) (solder_paste_margin -0.05))
  (pad P11 smd circle (at 1.6 -4) (size 0.35 0.35) (layers F.Cu F.Paste F.Mask)
    (solder_mask_margin 0.07) (solder_paste_margin -0.05))
  (pad P12 smd circle (at 2.4 -4) (size 0.35 0.35) (layers F.Cu F.Paste F.Mask)
    (solder_mask_margin 0.07) (solder_paste_margin -0.05))
  (pad P13 smd circle (at 3.2 -4) (size 0.35 0.35) (layers F.Cu F.Paste F.Mask)
    (solder_mask_margin 0.07) (solder_paste_margin -0.05))
  (pad P14 smd circle (at 4 -4) (size 0.35 0.35) (layers F.Cu F.Paste F.Mask)
    (solder_mask_margin 0.07) (solder_paste_margin -0.05))
  (pad P15 smd circle (at 4.8 -4) (size 0.35 0.35) (layers F.Cu F.Paste F.Mask)
    (solder_mask_margin 0.07) (solder_paste_margin -0.05))
  (pad P16 smd circle (at 5.6 -4) (size 0.35 0.35) (layers F.Cu F.Paste F.Mask)
    (solder_mask_margin 0.07) (solder_paste_margin -0.05))
  (pad P17 smd circle (at 6.4 -4) (size 0.35 0.35) (layers F.Cu F.Paste F.Mask)
    (solder_mask_margin 0.07) (solder_paste_margin -0.05))
  (pad R1 smd circle (at -6.4 -4.8) (size 0.35 0.35) (layers F.Cu F.Paste F.Mask)
    (solder_mask_margin 0.07) (solder_paste_margin -0.05))
  (pad R2 smd circle (at -5.6 -4.8) (size 0.35 0.35) (layers F.Cu F.Paste F.Mask)
    (solder_mask_margin 0.07) (solder_paste_margin -0.05))
  (pad R3 smd circle (at -4.8 -4.8) (size 0.35 0.35) (layers F.Cu F.Paste F.Mask)
    (solder_mask_margin 0.07) (solder_paste_margin -0.05))
  (pad R4 smd circle (at -4 -4.8) (size 0.35 0.35) (layers F.Cu F.Paste F.Mask)
    (solder_mask_margin 0.07) (solder_paste_margin -0.05))
  (pad R5 smd circle (at -3.2 -4.8) (size 0.35 0.35) (layers F.Cu F.Paste F.Mask)
    (solder_mask_margin 0.07) (solder_paste_margin -0.05))
  (pad R6 smd circle (at -2.4 -4.8) (size 0.35 0.35) (layers F.Cu F.Paste F.Mask)
    (solder_mask_margin 0.07) (solder_paste_margin -0.05))
  (pad R7 smd circle (at -1.6 -4.8) (size 0.35 0.35) (layers F.Cu F.Paste F.Mask)
    (solder_mask_margin 0.07) (solder_paste_margin -0.05))
  (pad R8 smd circle (at -0.8 -4.8) (size 0.35 0.35) (layers F.Cu F.Paste F.Mask)
    (solder_mask_margin 0.07) (solder_paste_margin -0.05))
  (pad R9 smd circle (at 0 -4.8) (size 0.35 0.35) (layers F.Cu F.Paste F.Mask)
    (solder_mask_margin 0.07) (solder_paste_margin -0.05))
  (pad R10 smd circle (at 0.8 -4.8) (size 0.35 0.35) (layers F.Cu F.Paste F.Mask)
    (solder_mask_margin 0.07) (solder_paste_margin -0.05))
  (pad R11 smd circle (at 1.6 -4.8) (size 0.35 0.35) (layers F.Cu F.Paste F.Mask)
    (solder_mask_margin 0.07) (solder_paste_margin -0.05))
  (pad R12 smd circle (at 2.4 -4.8) (size 0.35 0.35) (layers F.Cu F.Paste F.Mask)
    (solder_mask_margin 0.07) (solder_paste_margin -0.05))
  (pad R13 smd circle (at 3.2 -4.8) (size 0.35 0.35) (layers F.Cu F.Paste F.Mask)
    (solder_mask_margin 0.07) (solder_paste_margin -0.05))
  (pad R14 smd circle (at 4 -4.8) (size 0.35 0.35) (layers F.Cu F.Paste F.Mask)
    (solder_mask_margin 0.07) (solder_paste_margin -0.05))
  (pad R15 smd circle (at 4.8 -4.8) (size 0.35 0.35) (layers F.Cu F.Paste F.Mask)
    (solder_mask_margin 0.07) (solder_paste_margin -0.05))
  (pad R16 smd circle (at 5.6 -4.8) (size 0.35 0.35) (layers F.Cu F.Paste F.Mask)
    (solder_mask_margin 0.07) (solder_paste_margin -0.05))
  (pad R17 smd circle (at 6.4 -4.8) (size 0.35 0.35) (layers F.Cu F.Paste F.Mask)
    (solder_mask_margin 0.07) (solder_paste_margin -0.05))
  (pad T1 smd circle (at -6.4 -5.6) (size 0.35 0.35) (layers F.Cu F.Paste F.Mask)
    (solder_mask_margin 0.07) (solder_paste_margin -0.05))
  (pad T2 smd circle (at -5.6 -5.6) (size 0.35 0.35) (layers F.Cu F.Paste F.Mask)
    (solder_mask_margin 0.07) (solder_paste_margin -0.05))
  (pad T3 smd circle (at -4.8 -5.6) (size 0.35 0.35) (layers F.Cu F.Paste F.Mask)
    (solder_mask_margin 0.07) (solder_paste_margin -0.05))
  (pad T4 smd circle (at -4 -5.6) (size 0.35 0.35) (layers F.Cu F.Paste F.Mask)
    (solder_mask_margin 0.07) (solder_paste_margin -0.05))
  (pad T5 smd circle (at -3.2 -5.6) (size 0.35 0.35) (layers F.Cu F.Paste F.Mask)
    (solder_mask_margin 0.07) (solder_paste_margin -0.05))
  (pad T6 smd circle (at -2.4 -5.6) (size 0.35 0.35) (layers F.Cu F.Paste F.Mask)
    (solder_mask_margin 0.07) (solder_paste_margin -0.05))
  (pad T7 smd circle (at -1.6 -5.6) (size 0.35 0.35) (layers F.Cu F.Paste F.Mask)
    (solder_mask_margin 0.07) (solder_paste_margin -0.05))
  (pad T8 smd circle (at -0.8 -5.6) (size 0.35 0.35) (layers F.Cu F.Paste F.Mask)
    (solder_mask_margin 0.07) (solder_paste_margin -0.05))
  (pad T9 smd circle (at 0 -5.6) (size 0.35 0.35) (layers F.Cu F.Paste F.Mask)
    (solder_mask_margin 0.07) (solder_paste_margin -0.05))
  (pad T10 smd circle (at 0.8 -5.6) (size 0.35 0.35) (layers F.Cu F.Paste F.Mask)
    (solder_mask_margin 0.07) (solder_paste_margin -0.05))
  (pad T11 smd circle (at 1.6 -5.6) (size 0.35 0.35) (layers F.Cu F.Paste F.Mask)
    (solder_mask_margin 0.07) (solder_paste_margin -0.05))
  (pad T12 smd circle (at 2.4 -5.6) (size 0.35 0.35) (layers F.Cu F.Paste F.Mask)
    (solder_mask_margin 0.07) (solder_paste_margin -0.05))
  (pad T13 smd circle (at 3.2 -5.6) (size 0.35 0.35) (layers F.Cu F.Paste F.Mask)
    (solder_mask_margin 0.07) (solder_paste_margin -0.05))
  (pad T14 smd circle (at 4 -5.6) (size 0.35 0.35) (layers F.Cu F.Paste F.Mask)
    (solder_mask_margin 0.07) (solder_paste_margin -0.05))
  (pad T15 smd circle (at 4.8 -5.6) (size 0.35 0.35) (layers F.Cu F.Paste F.Mask)
    (solder_mask_margin 0.07) (solder_paste_margin -0.05))
  (pad T16 smd circle (at 5.6 -5.6) (size 0.35 0.35) (layers F.Cu F.Paste F.Mask)
    (solder_mask_margin 0.07) (solder_paste_margin -0.05))
  (pad T17 smd circle (at 6.4 -5.6) (size 0.35 0.35) (layers F.Cu F.Paste F.Mask)
    (solder_mask_margin 0.07) (solder_paste_margin -0.05))
  (pad U1 smd circle (at -6.4 -6.4) (size 0.35 0.35) (layers F.Cu F.Paste F.Mask)
    (solder_mask_margin 0.07) (solder_paste_margin -0.05))
  (pad U2 smd circle (at -5.6 -6.4) (size 0.35 0.35) (layers F.Cu F.Paste F.Mask)
    (solder_mask_margin 0.07) (solder_paste_margin -0.05))
  (pad U3 smd circle (at -4.8 -6.4) (size 0.35 0.35) (layers F.Cu F.Paste F.Mask)
    (solder_mask_margin 0.07) (solder_paste_margin -0.05))
  (pad U4 smd circle (at -4 -6.4) (size 0.35 0.35) (layers F.Cu F.Paste F.Mask)
    (solder_mask_margin 0.07) (solder_paste_margin -0.05))
  (pad U5 smd circle (at -3.2 -6.4) (size 0.35 0.35) (layers F.Cu F.Paste F.Mask)
    (solder_mask_margin 0.07) (solder_paste_margin -0.05))
  (pad U6 smd circle (at -2.4 -6.4) (size 0.35 0.35) (layers F.Cu F.Paste F.Mask)
    (solder_mask_margin 0.07) (solder_paste_margin -0.05))
  (pad U7 smd circle (at -1.6 -6.4) (size 0.35 0.35) (layers F.Cu F.Paste F.Mask)
    (solder_mask_margin 0.07) (solder_paste_margin -0.05))
  (pad U8 smd circle (at -0.8 -6.4) (size 0.35 0.35) (layers F.Cu F.Paste F.Mask)
    (solder_mask_margin 0.07) (solder_paste_margin -0.05))
  (pad U9 smd circle (at 0 -6.4) (size 0.35 0.35) (layers F.Cu F.Paste F.Mask)
    (solder_mask_margin 0.07) (solder_paste_margin -0.05))
  (pad U10 smd circle (at 0.8 -6.4) (size 0.35 0.35) (layers F.Cu F.Paste F.Mask)
    (solder_mask_margin 0.07) (solder_paste_margin -0.05))
  (pad U11 smd circle (at 1.6 -6.4) (size 0.35 0.35) (layers F.Cu F.Paste F.Mask)
    (solder_mask_margin 0.07) (solder_paste_margin -0.05))
  (pad U12 smd circle (at 2.4 -6.4) (size 0.35 0.35) (layers F.Cu F.Paste F.Mask)
    (solder_mask_margin 0.07) (solder_paste_margin -0.05))
  (pad U13 smd circle (at 3.2 -6.4) (size 0.35 0.35) (layers F.Cu F.Paste F.Mask)
    (solder_mask_margin 0.07) (solder_paste_margin -0.05))
  (pad U14 smd circle (at 4 -6.4) (size 0.35 0.35) (layers F.Cu F.Paste F.Mask)
    (solder_mask_margin 0.07) (solder_paste_margin -0.05))
  (pad U15 smd circle (at 4.8 -6.4) (size 0.35 0.35) (layers F.Cu F.Paste F.Mask)
    (solder_mask_margin 0.07) (solder_paste_margin -0.05))
  (pad U16 smd circle (at 5.6 -6.4) (size 0.35 0.35) (layers F.Cu F.Paste F.Mask)
    (solder_mask_margin 0.07) (solder_paste_margin -0.05))
  (pad U17 smd circle (at 6.4 -6.4) (size 0.35 0.35) (layers F.Cu F.Paste F.Mask)
    (solder_mask_margin 0.07) (solder_paste_margin -0.05))
  (model walter/smd_bga/lfbga217.wrl
    (at (xyz 0 0 0))
    (scale (xyz 1 1 1))
    (rotate (xyz 0 0 0))
  )
)
