(module mbga256 (layer F.Cu) (tedit 54F8E32F)
  (descr "256 pin Micro FineLine BGA (mirrored pin numbering)")
  (fp_text reference U*** (at 0 -6) (layer F.SilkS)
    (effects (font (size 0.5 0.5) (thickness 0.1)))
  )
  (fp_text value MBGA-256 (at 0 6) (layer F.SilkS)
    (effects (font (size 0.5 0.5) (thickness 0.1)))
  )
  (fp_line (start -5.9 4.4) (end -5.9 5.9) (layer F.SilkS) (width 0.127))
  (fp_line (start -5.9 5.9) (end -4.4 5.9) (layer F.SilkS) (width 0.127))
  (fp_line (start -4.5 5.8) (end -5.8 5.8) (layer F.SilkS) (width 0.127))
  (fp_line (start -5.8 5.8) (end -5.8 4.5) (layer F.SilkS) (width 0.127))
  (fp_line (start -5.7 5.7) (end -4.6 5.7) (layer F.SilkS) (width 0.127))
  (fp_line (start -5.7 4.6) (end -5.7 5.7) (layer F.SilkS) (width 0.127))
  (fp_line (start -4.6 5.7) (end -4.3 6) (layer F.SilkS) (width 0.127))
  (fp_line (start -4.3 6) (end -6 6) (layer F.SilkS) (width 0.127))
  (fp_line (start -6 6) (end -6 4.3) (layer F.SilkS) (width 0.127))
  (fp_line (start -6 4.3) (end -5.7 4.6) (layer F.SilkS) (width 0.127))
  (fp_line (start -5.5 -5.25) (end -5.5 5.25) (layer F.SilkS) (width 0.1))
  (fp_line (start 5.25 -5.5) (end -5.25 -5.5) (layer F.SilkS) (width 0.1))
  (fp_line (start 5.5 5.25) (end 5.5 -5.25) (layer F.SilkS) (width 0.1))
  (fp_line (start -5.25 5.5) (end 5.25 5.5) (layer F.SilkS) (width 0.1))
  (fp_line (start -5.25 5.5) (end -5.5 5.25) (layer F.SilkS) (width 0.1))
  (fp_line (start -5.5 -5.25) (end -5.25 -5.5) (layer F.SilkS) (width 0.1))
  (fp_line (start 5.25 -5.5) (end 5.5 -5.25) (layer F.SilkS) (width 0.1))
  (fp_line (start 5.5 5.25) (end 5.25 5.5) (layer F.SilkS) (width 0.1))
  (pad A1 smd circle (at -4.75 4.75) (size 0.3 0.3) (layers F.Cu F.Paste F.Mask)
    (solder_mask_margin 0.07) (solder_paste_margin -0.05))
  (pad A2 smd circle (at -4.25 4.75) (size 0.3 0.3) (layers F.Cu F.Paste F.Mask)
    (solder_mask_margin 0.07) (solder_paste_margin -0.05))
  (pad A3 smd circle (at -3.75 4.75) (size 0.3 0.3) (layers F.Cu F.Paste F.Mask)
    (solder_mask_margin 0.07) (solder_paste_margin -0.05))
  (pad A4 smd circle (at -3.25 4.75) (size 0.3 0.3) (layers F.Cu F.Paste F.Mask)
    (solder_mask_margin 0.07) (solder_paste_margin -0.05))
  (pad A5 smd circle (at -2.75 4.75) (size 0.3 0.3) (layers F.Cu F.Paste F.Mask)
    (solder_mask_margin 0.07) (solder_paste_margin -0.05))
  (pad A6 smd circle (at -2.25 4.75) (size 0.3 0.3) (layers F.Cu F.Paste F.Mask)
    (solder_mask_margin 0.07) (solder_paste_margin -0.05))
  (pad A7 smd circle (at -1.75 4.75) (size 0.3 0.3) (layers F.Cu F.Paste F.Mask)
    (solder_mask_margin 0.07) (solder_paste_margin -0.05))
  (pad A8 smd circle (at -1.25 4.75) (size 0.3 0.3) (layers F.Cu F.Paste F.Mask)
    (solder_mask_margin 0.07) (solder_paste_margin -0.05))
  (pad A9 smd circle (at -0.75 4.75) (size 0.3 0.3) (layers F.Cu F.Paste F.Mask)
    (solder_mask_margin 0.07) (solder_paste_margin -0.05))
  (pad B1 smd circle (at -4.75 4.25) (size 0.3 0.3) (layers F.Cu F.Paste F.Mask)
    (solder_mask_margin 0.07) (solder_paste_margin -0.05))
  (pad B2 smd circle (at -4.25 4.25) (size 0.3 0.3) (layers F.Cu F.Paste F.Mask)
    (solder_mask_margin 0.07) (solder_paste_margin -0.05))
  (pad B3 smd circle (at -3.75 4.25) (size 0.3 0.3) (layers F.Cu F.Paste F.Mask)
    (solder_mask_margin 0.07) (solder_paste_margin -0.05))
  (pad B4 smd circle (at -3.25 4.25) (size 0.3 0.3) (layers F.Cu F.Paste F.Mask)
    (solder_mask_margin 0.07) (solder_paste_margin -0.05))
  (pad B5 smd circle (at -2.75 4.25) (size 0.3 0.3) (layers F.Cu F.Paste F.Mask)
    (solder_mask_margin 0.07) (solder_paste_margin -0.05))
  (pad B6 smd circle (at -2.25 4.25) (size 0.3 0.3) (layers F.Cu F.Paste F.Mask)
    (solder_mask_margin 0.07) (solder_paste_margin -0.05))
  (pad B7 smd circle (at -1.75 4.25) (size 0.3 0.3) (layers F.Cu F.Paste F.Mask)
    (solder_mask_margin 0.07) (solder_paste_margin -0.05))
  (pad B8 smd circle (at -1.25 4.25) (size 0.3 0.3) (layers F.Cu F.Paste F.Mask)
    (solder_mask_margin 0.07) (solder_paste_margin -0.05))
  (pad B9 smd circle (at -0.75 4.25) (size 0.3 0.3) (layers F.Cu F.Paste F.Mask)
    (solder_mask_margin 0.07) (solder_paste_margin -0.05))
  (pad C1 smd circle (at -4.75 3.75) (size 0.3 0.3) (layers F.Cu F.Paste F.Mask)
    (solder_mask_margin 0.07) (solder_paste_margin -0.05))
  (pad C2 smd circle (at -4.25 3.75) (size 0.3 0.3) (layers F.Cu F.Paste F.Mask)
    (solder_mask_margin 0.07) (solder_paste_margin -0.05))
  (pad C4 smd circle (at -3.25 3.75) (size 0.3 0.3) (layers F.Cu F.Paste F.Mask)
    (solder_mask_margin 0.07) (solder_paste_margin -0.05))
  (pad C5 smd circle (at -2.75 3.75) (size 0.3 0.3) (layers F.Cu F.Paste F.Mask)
    (solder_mask_margin 0.07) (solder_paste_margin -0.05))
  (pad C6 smd circle (at -2.25 3.75) (size 0.3 0.3) (layers F.Cu F.Paste F.Mask)
    (solder_mask_margin 0.07) (solder_paste_margin -0.05))
  (pad C8 smd circle (at -1.25 3.75) (size 0.3 0.3) (layers F.Cu F.Paste F.Mask)
    (solder_mask_margin 0.07) (solder_paste_margin -0.05))
  (pad D1 smd circle (at -4.75 3.25) (size 0.3 0.3) (layers F.Cu F.Paste F.Mask)
    (solder_mask_margin 0.07) (solder_paste_margin -0.05))
  (pad D2 smd circle (at -4.25 3.25) (size 0.3 0.3) (layers F.Cu F.Paste F.Mask)
    (solder_mask_margin 0.07) (solder_paste_margin -0.05))
  (pad D3 smd circle (at -3.75 3.25) (size 0.3 0.3) (layers F.Cu F.Paste F.Mask)
    (solder_mask_margin 0.07) (solder_paste_margin -0.05))
  (pad C7 smd circle (at -1.75 3.75) (size 0.3 0.3) (layers F.Cu F.Paste F.Mask)
    (solder_mask_margin 0.07) (solder_paste_margin -0.05))
  (pad D9 smd circle (at -0.75 3.25) (size 0.3 0.3) (layers F.Cu F.Paste F.Mask)
    (solder_mask_margin 0.07) (solder_paste_margin -0.05))
  (pad E1 smd circle (at -4.75 2.75) (size 0.3 0.3) (layers F.Cu F.Paste F.Mask)
    (solder_mask_margin 0.07) (solder_paste_margin -0.05))
  (pad E2 smd circle (at -4.25 2.75) (size 0.3 0.3) (layers F.Cu F.Paste F.Mask)
    (solder_mask_margin 0.07) (solder_paste_margin -0.05))
  (pad E3 smd circle (at -3.75 2.75) (size 0.3 0.3) (layers F.Cu F.Paste F.Mask)
    (solder_mask_margin 0.07) (solder_paste_margin -0.05))
  (pad F1 smd circle (at -4.75 2.25) (size 0.3 0.3) (layers F.Cu F.Paste F.Mask)
    (solder_mask_margin 0.07) (solder_paste_margin -0.05))
  (pad F2 smd circle (at -4.25 2.25) (size 0.3 0.3) (layers F.Cu F.Paste F.Mask)
    (solder_mask_margin 0.07) (solder_paste_margin -0.05))
  (pad F3 smd circle (at -3.75 2.25) (size 0.3 0.3) (layers F.Cu F.Paste F.Mask)
    (solder_mask_margin 0.07) (solder_paste_margin -0.05))
  (pad G1 smd circle (at -4.75 1.75) (size 0.3 0.3) (layers F.Cu F.Paste F.Mask)
    (solder_mask_margin 0.07) (solder_paste_margin -0.05))
  (pad G2 smd circle (at -4.25 1.75) (size 0.3 0.3) (layers F.Cu F.Paste F.Mask)
    (solder_mask_margin 0.07) (solder_paste_margin -0.05))
  (pad G3 smd circle (at -3.75 1.75) (size 0.3 0.3) (layers F.Cu F.Paste F.Mask)
    (solder_mask_margin 0.07) (solder_paste_margin -0.05))
  (pad H1 smd circle (at -4.75 1.25) (size 0.3 0.3) (layers F.Cu F.Paste F.Mask)
    (solder_mask_margin 0.07) (solder_paste_margin -0.05))
  (pad H2 smd circle (at -4.25 1.25) (size 0.3 0.3) (layers F.Cu F.Paste F.Mask)
    (solder_mask_margin 0.07) (solder_paste_margin -0.05))
  (pad H3 smd circle (at -3.75 1.25) (size 0.3 0.3) (layers F.Cu F.Paste F.Mask)
    (solder_mask_margin 0.07) (solder_paste_margin -0.05))
  (pad H4 smd circle (at -3.25 1.25) (size 0.3 0.3) (layers F.Cu F.Paste F.Mask)
    (solder_mask_margin 0.07) (solder_paste_margin -0.05))
  (pad J1 smd circle (at -4.75 0.75) (size 0.3 0.3) (layers F.Cu F.Paste F.Mask)
    (solder_mask_margin 0.07) (solder_paste_margin -0.05))
  (pad J2 smd circle (at -4.25 0.75) (size 0.3 0.3) (layers F.Cu F.Paste F.Mask)
    (solder_mask_margin 0.07) (solder_paste_margin -0.05))
  (pad J4 smd circle (at -3.25 0.75) (size 0.3 0.3) (layers F.Cu F.Paste F.Mask)
    (solder_mask_margin 0.07) (solder_paste_margin -0.05))
  (pad J3 smd circle (at -3.75 0.75) (size 0.3 0.3) (layers F.Cu F.Paste F.Mask)
    (solder_mask_margin 0.07) (solder_paste_margin -0.05))
  (pad A10 smd circle (at -0.25 4.75) (size 0.3 0.3) (layers F.Cu F.Paste F.Mask)
    (solder_mask_margin 0.07) (solder_paste_margin -0.05))
  (pad A11 smd circle (at 0.25 4.75) (size 0.3 0.3) (layers F.Cu F.Paste F.Mask)
    (solder_mask_margin 0.07) (solder_paste_margin -0.05))
  (pad B10 smd circle (at -0.25 4.25) (size 0.3 0.3) (layers F.Cu F.Paste F.Mask)
    (solder_mask_margin 0.07) (solder_paste_margin -0.05))
  (pad B11 smd circle (at 0.25 4.25) (size 0.3 0.3) (layers F.Cu F.Paste F.Mask)
    (solder_mask_margin 0.07) (solder_paste_margin -0.05))
  (pad C10 smd circle (at -0.25 3.75) (size 0.3 0.3) (layers F.Cu F.Paste F.Mask)
    (solder_mask_margin 0.07) (solder_paste_margin -0.05))
  (pad C11 smd circle (at 0.25 3.75) (size 0.3 0.3) (layers F.Cu F.Paste F.Mask)
    (solder_mask_margin 0.07) (solder_paste_margin -0.05))
  (pad D10 smd circle (at -0.25 3.25) (size 0.3 0.3) (layers F.Cu F.Paste F.Mask)
    (solder_mask_margin 0.07) (solder_paste_margin -0.05))
  (pad D11 smd circle (at 0.25 3.25) (size 0.3 0.3) (layers F.Cu F.Paste F.Mask)
    (solder_mask_margin 0.07) (solder_paste_margin -0.05))
  (pad K1 smd circle (at -4.75 0.25) (size 0.3 0.3) (layers F.Cu F.Paste F.Mask)
    (solder_mask_margin 0.07) (solder_paste_margin -0.05))
  (pad L1 smd circle (at -4.75 -0.25) (size 0.3 0.3) (layers F.Cu F.Paste F.Mask)
    (solder_mask_margin 0.07) (solder_paste_margin -0.05))
  (pad K2 smd circle (at -4.25 0.25) (size 0.3 0.3) (layers F.Cu F.Paste F.Mask)
    (solder_mask_margin 0.07) (solder_paste_margin -0.05))
  (pad K3 smd circle (at -3.75 0.25) (size 0.3 0.3) (layers F.Cu F.Paste F.Mask)
    (solder_mask_margin 0.07) (solder_paste_margin -0.05))
  (pad K4 smd circle (at -3.25 0.25) (size 0.3 0.3) (layers F.Cu F.Paste F.Mask)
    (solder_mask_margin 0.07) (solder_paste_margin -0.05))
  (pad L2 smd circle (at -4.25 -0.25) (size 0.3 0.3) (layers F.Cu F.Paste F.Mask)
    (solder_mask_margin 0.07) (solder_paste_margin -0.05))
  (pad L3 smd circle (at -3.75 -0.25) (size 0.3 0.3) (layers F.Cu F.Paste F.Mask)
    (solder_mask_margin 0.07) (solder_paste_margin -0.05))
  (pad L4 smd circle (at -3.25 -0.25) (size 0.3 0.3) (layers F.Cu F.Paste F.Mask)
    (solder_mask_margin 0.07) (solder_paste_margin -0.05))
  (pad E4 smd circle (at -3.25 2.75) (size 0.3 0.3) (layers F.Cu F.Paste F.Mask)
    (solder_mask_margin 0.07) (solder_paste_margin -0.05))
  (pad G4 smd circle (at -3.25 1.75) (size 0.3 0.3) (layers F.Cu F.Paste F.Mask)
    (solder_mask_margin 0.07) (solder_paste_margin -0.05))
  (pad D5 smd circle (at -2.75 3.25) (size 0.3 0.3) (layers F.Cu F.Paste F.Mask)
    (solder_mask_margin 0.07) (solder_paste_margin -0.05))
  (pad D7 smd circle (at -1.75 3.25) (size 0.3 0.3) (layers F.Cu F.Paste F.Mask)
    (solder_mask_margin 0.07) (solder_paste_margin -0.05))
  (pad M1 smd circle (at -4.75 -0.75) (size 0.3 0.3) (layers F.Cu F.Paste F.Mask)
    (solder_mask_margin 0.07) (solder_paste_margin -0.05))
  (pad N1 smd circle (at -4.75 -1.25) (size 0.3 0.3) (layers F.Cu F.Paste F.Mask)
    (solder_mask_margin 0.07) (solder_paste_margin -0.05))
  (pad N2 smd circle (at -4.25 -1.25) (size 0.3 0.3) (layers F.Cu F.Paste F.Mask)
    (solder_mask_margin 0.07) (solder_paste_margin -0.05))
  (pad N3 smd circle (at -3.75 -1.25) (size 0.3 0.3) (layers F.Cu F.Paste F.Mask)
    (solder_mask_margin 0.07) (solder_paste_margin -0.05))
  (pad N4 smd circle (at -3.25 -1.25) (size 0.3 0.3) (layers F.Cu F.Paste F.Mask)
    (solder_mask_margin 0.07) (solder_paste_margin -0.05))
  (pad M2 smd circle (at -4.25 -0.75) (size 0.3 0.3) (layers F.Cu F.Paste F.Mask)
    (solder_mask_margin 0.07) (solder_paste_margin -0.05))
  (pad M3 smd circle (at -3.75 -0.75) (size 0.3 0.3) (layers F.Cu F.Paste F.Mask)
    (solder_mask_margin 0.07) (solder_paste_margin -0.05))
  (pad M4 smd circle (at -3.25 -0.75) (size 0.3 0.3) (layers F.Cu F.Paste F.Mask)
    (solder_mask_margin 0.07) (solder_paste_margin -0.05))
  (pad F4 smd circle (at -3.25 2.25) (size 0.3 0.3) (layers F.Cu F.Paste F.Mask)
    (solder_mask_margin 0.07) (solder_paste_margin -0.05))
  (pad C3 smd circle (at -3.75 3.75) (size 0.3 0.3) (layers F.Cu F.Paste F.Mask)
    (solder_mask_margin 0.07) (solder_paste_margin -0.05))
  (pad D4 smd circle (at -3.25 3.25) (size 0.3 0.3) (layers F.Cu F.Paste F.Mask)
    (solder_mask_margin 0.07) (solder_paste_margin -0.05))
  (pad D6 smd circle (at -2.25 3.25) (size 0.3 0.3) (layers F.Cu F.Paste F.Mask)
    (solder_mask_margin 0.07) (solder_paste_margin -0.05))
  (pad D8 smd circle (at -1.25 3.25) (size 0.3 0.3) (layers F.Cu F.Paste F.Mask)
    (solder_mask_margin 0.07) (solder_paste_margin -0.05))
  (pad C9 smd circle (at -0.75 3.75) (size 0.3 0.3) (layers F.Cu F.Paste F.Mask)
    (solder_mask_margin 0.07) (solder_paste_margin -0.05))
  (pad A12 smd circle (at 0.75 4.75) (size 0.3 0.3) (layers F.Cu F.Paste F.Mask)
    (solder_mask_margin 0.07) (solder_paste_margin -0.05))
  (pad A13 smd circle (at 1.25 4.75) (size 0.3 0.3) (layers F.Cu F.Paste F.Mask)
    (solder_mask_margin 0.07) (solder_paste_margin -0.05))
  (pad B12 smd circle (at 0.75 4.25) (size 0.3 0.3) (layers F.Cu F.Paste F.Mask)
    (solder_mask_margin 0.07) (solder_paste_margin -0.05))
  (pad B13 smd circle (at 1.25 4.25) (size 0.3 0.3) (layers F.Cu F.Paste F.Mask)
    (solder_mask_margin 0.07) (solder_paste_margin -0.05))
  (pad C12 smd circle (at 0.75 3.75) (size 0.3 0.3) (layers F.Cu F.Paste F.Mask)
    (solder_mask_margin 0.07) (solder_paste_margin -0.05))
  (pad C13 smd circle (at 1.25 3.75) (size 0.3 0.3) (layers F.Cu F.Paste F.Mask)
    (solder_mask_margin 0.07) (solder_paste_margin -0.05))
  (pad D12 smd circle (at 0.75 3.25) (size 0.3 0.3) (layers F.Cu F.Paste F.Mask)
    (solder_mask_margin 0.07) (solder_paste_margin -0.05))
  (pad D13 smd circle (at 1.25 3.25) (size 0.3 0.3) (layers F.Cu F.Paste F.Mask)
    (solder_mask_margin 0.07) (solder_paste_margin -0.05))
  (pad A14 smd circle (at 1.75 4.75) (size 0.3 0.3) (layers F.Cu F.Paste F.Mask)
    (solder_mask_margin 0.07) (solder_paste_margin -0.05))
  (pad A15 smd circle (at 2.25 4.75) (size 0.3 0.3) (layers F.Cu F.Paste F.Mask)
    (solder_mask_margin 0.07) (solder_paste_margin -0.05))
  (pad A16 smd circle (at 2.75 4.75) (size 0.3 0.3) (layers F.Cu F.Paste F.Mask)
    (solder_mask_margin 0.07) (solder_paste_margin -0.05))
  (pad A17 smd circle (at 3.25 4.75) (size 0.3 0.3) (layers F.Cu F.Paste F.Mask)
    (solder_mask_margin 0.07) (solder_paste_margin -0.05))
  (pad A18 smd circle (at 3.75 4.75) (size 0.3 0.3) (layers F.Cu F.Paste F.Mask)
    (solder_mask_margin 0.07) (solder_paste_margin -0.05))
  (pad A19 smd circle (at 4.25 4.75) (size 0.3 0.3) (layers F.Cu F.Paste F.Mask)
    (solder_mask_margin 0.07) (solder_paste_margin -0.05))
  (pad A20 smd circle (at 4.75 4.75) (size 0.3 0.3) (layers F.Cu F.Paste F.Mask)
    (solder_mask_margin 0.07) (solder_paste_margin -0.05))
  (pad B14 smd circle (at 1.75 4.25) (size 0.3 0.3) (layers F.Cu F.Paste F.Mask)
    (solder_mask_margin 0.07) (solder_paste_margin -0.05))
  (pad B15 smd circle (at 2.25 4.25) (size 0.3 0.3) (layers F.Cu F.Paste F.Mask)
    (solder_mask_margin 0.07) (solder_paste_margin -0.05))
  (pad B16 smd circle (at 2.75 4.25) (size 0.3 0.3) (layers F.Cu F.Paste F.Mask)
    (solder_mask_margin 0.07) (solder_paste_margin -0.05))
  (pad B17 smd circle (at 3.25 4.25) (size 0.3 0.3) (layers F.Cu F.Paste F.Mask)
    (solder_mask_margin 0.07) (solder_paste_margin -0.05))
  (pad B18 smd circle (at 3.75 4.25) (size 0.3 0.3) (layers F.Cu F.Paste F.Mask)
    (solder_mask_margin 0.07) (solder_paste_margin -0.05))
  (pad B19 smd circle (at 4.25 4.25) (size 0.3 0.3) (layers F.Cu F.Paste F.Mask)
    (solder_mask_margin 0.07) (solder_paste_margin -0.05))
  (pad B20 smd circle (at 4.75 4.25) (size 0.3 0.3) (layers F.Cu F.Paste F.Mask)
    (solder_mask_margin 0.07) (solder_paste_margin -0.05))
  (pad C14 smd circle (at 1.75 3.75) (size 0.3 0.3) (layers F.Cu F.Paste F.Mask)
    (solder_mask_margin 0.07) (solder_paste_margin -0.05))
  (pad C15 smd circle (at 2.25 3.75) (size 0.3 0.3) (layers F.Cu F.Paste F.Mask)
    (solder_mask_margin 0.07) (solder_paste_margin -0.05))
  (pad C16 smd circle (at 2.75 3.75) (size 0.3 0.3) (layers F.Cu F.Paste F.Mask)
    (solder_mask_margin 0.07) (solder_paste_margin -0.05))
  (pad C17 smd circle (at 3.25 3.75) (size 0.3 0.3) (layers F.Cu F.Paste F.Mask)
    (solder_mask_margin 0.07) (solder_paste_margin -0.05))
  (pad C18 smd circle (at 3.75 3.75) (size 0.3 0.3) (layers F.Cu F.Paste F.Mask)
    (solder_mask_margin 0.07) (solder_paste_margin -0.05))
  (pad C19 smd circle (at 4.25 3.75) (size 0.3 0.3) (layers F.Cu F.Paste F.Mask)
    (solder_mask_margin 0.07) (solder_paste_margin -0.05))
  (pad C20 smd circle (at 4.75 3.75) (size 0.3 0.3) (layers F.Cu F.Paste F.Mask)
    (solder_mask_margin 0.07) (solder_paste_margin -0.05))
  (pad D14 smd circle (at 1.75 3.25) (size 0.3 0.3) (layers F.Cu F.Paste F.Mask)
    (solder_mask_margin 0.07) (solder_paste_margin -0.05))
  (pad D15 smd circle (at 2.25 3.25) (size 0.3 0.3) (layers F.Cu F.Paste F.Mask)
    (solder_mask_margin 0.07) (solder_paste_margin -0.05))
  (pad D16 smd circle (at 2.75 3.25) (size 0.3 0.3) (layers F.Cu F.Paste F.Mask)
    (solder_mask_margin 0.07) (solder_paste_margin -0.05))
  (pad D17 smd circle (at 3.25 3.25) (size 0.3 0.3) (layers F.Cu F.Paste F.Mask)
    (solder_mask_margin 0.07) (solder_paste_margin -0.05))
  (pad D18 smd circle (at 3.75 3.25) (size 0.3 0.3) (layers F.Cu F.Paste F.Mask)
    (solder_mask_margin 0.07) (solder_paste_margin -0.05))
  (pad D19 smd circle (at 4.25 3.25) (size 0.3 0.3) (layers F.Cu F.Paste F.Mask)
    (solder_mask_margin 0.07) (solder_paste_margin -0.05))
  (pad D20 smd circle (at 4.75 3.25) (size 0.3 0.3) (layers F.Cu F.Paste F.Mask)
    (solder_mask_margin 0.07) (solder_paste_margin -0.05))
  (pad E17 smd circle (at 3.25 2.75) (size 0.3 0.3) (layers F.Cu F.Paste F.Mask)
    (solder_mask_margin 0.07) (solder_paste_margin -0.05))
  (pad F17 smd circle (at 3.25 2.25) (size 0.3 0.3) (layers F.Cu F.Paste F.Mask)
    (solder_mask_margin 0.07) (solder_paste_margin -0.05))
  (pad G17 smd circle (at 3.25 1.75) (size 0.3 0.3) (layers F.Cu F.Paste F.Mask)
    (solder_mask_margin 0.07) (solder_paste_margin -0.05))
  (pad H17 smd circle (at 3.25 1.25) (size 0.3 0.3) (layers F.Cu F.Paste F.Mask)
    (solder_mask_margin 0.07) (solder_paste_margin -0.05))
  (pad J17 smd circle (at 3.25 0.75) (size 0.3 0.3) (layers F.Cu F.Paste F.Mask)
    (solder_mask_margin 0.07) (solder_paste_margin -0.05))
  (pad K17 smd circle (at 3.25 0.25) (size 0.3 0.3) (layers F.Cu F.Paste F.Mask)
    (solder_mask_margin 0.07) (solder_paste_margin -0.05))
  (pad L17 smd circle (at 3.25 -0.25) (size 0.3 0.3) (layers F.Cu F.Paste F.Mask)
    (solder_mask_margin 0.07) (solder_paste_margin -0.05))
  (pad M17 smd circle (at 3.25 -0.75) (size 0.3 0.3) (layers F.Cu F.Paste F.Mask)
    (solder_mask_margin 0.07) (solder_paste_margin -0.05))
  (pad N17 smd circle (at 3.25 -1.25) (size 0.3 0.3) (layers F.Cu F.Paste F.Mask)
    (solder_mask_margin 0.07) (solder_paste_margin -0.05))
  (pad P17 smd circle (at 3.25 -1.75) (size 0.3 0.3) (layers F.Cu F.Paste F.Mask)
    (solder_mask_margin 0.07) (solder_paste_margin -0.05))
  (pad R17 smd circle (at 3.25 -2.25) (size 0.3 0.3) (layers F.Cu F.Paste F.Mask)
    (solder_mask_margin 0.07) (solder_paste_margin -0.05))
  (pad T17 smd circle (at 3.25 -2.75) (size 0.3 0.3) (layers F.Cu F.Paste F.Mask)
    (solder_mask_margin 0.07) (solder_paste_margin -0.05))
  (pad E18 smd circle (at 3.75 2.75) (size 0.3 0.3) (layers F.Cu F.Paste F.Mask)
    (solder_mask_margin 0.07) (solder_paste_margin -0.05))
  (pad E19 smd circle (at 4.25 2.75) (size 0.3 0.3) (layers F.Cu F.Paste F.Mask)
    (solder_mask_margin 0.07) (solder_paste_margin -0.05))
  (pad E20 smd circle (at 4.75 2.75) (size 0.3 0.3) (layers F.Cu F.Paste F.Mask)
    (solder_mask_margin 0.07) (solder_paste_margin -0.05))
  (pad F18 smd circle (at 3.75 2.25) (size 0.3 0.3) (layers F.Cu F.Paste F.Mask)
    (solder_mask_margin 0.07) (solder_paste_margin -0.05))
  (pad F19 smd circle (at 4.25 2.25) (size 0.3 0.3) (layers F.Cu F.Paste F.Mask)
    (solder_mask_margin 0.07) (solder_paste_margin -0.05))
  (pad F20 smd circle (at 4.75 2.25) (size 0.3 0.3) (layers F.Cu F.Paste F.Mask)
    (solder_mask_margin 0.07) (solder_paste_margin -0.05))
  (pad G18 smd circle (at 3.75 1.75) (size 0.3 0.3) (layers F.Cu F.Paste F.Mask)
    (solder_mask_margin 0.07) (solder_paste_margin -0.05))
  (pad G19 smd circle (at 4.25 1.75) (size 0.3 0.3) (layers F.Cu F.Paste F.Mask)
    (solder_mask_margin 0.07) (solder_paste_margin -0.05))
  (pad G20 smd circle (at 4.75 1.75) (size 0.3 0.3) (layers F.Cu F.Paste F.Mask)
    (solder_mask_margin 0.07) (solder_paste_margin -0.05))
  (pad H18 smd circle (at 3.75 1.25) (size 0.3 0.3) (layers F.Cu F.Paste F.Mask)
    (solder_mask_margin 0.07) (solder_paste_margin -0.05))
  (pad H19 smd circle (at 4.25 1.25) (size 0.3 0.3) (layers F.Cu F.Paste F.Mask)
    (solder_mask_margin 0.07) (solder_paste_margin -0.05))
  (pad H20 smd circle (at 4.75 1.25) (size 0.3 0.3) (layers F.Cu F.Paste F.Mask)
    (solder_mask_margin 0.07) (solder_paste_margin -0.05))
  (pad J18 smd circle (at 3.75 0.75) (size 0.3 0.3) (layers F.Cu F.Paste F.Mask)
    (solder_mask_margin 0.07) (solder_paste_margin -0.05))
  (pad J19 smd circle (at 4.25 0.75) (size 0.3 0.3) (layers F.Cu F.Paste F.Mask)
    (solder_mask_margin 0.07) (solder_paste_margin -0.05))
  (pad J20 smd circle (at 4.75 0.75) (size 0.3 0.3) (layers F.Cu F.Paste F.Mask)
    (solder_mask_margin 0.07) (solder_paste_margin -0.05))
  (pad K18 smd circle (at 3.75 0.25) (size 0.3 0.3) (layers F.Cu F.Paste F.Mask)
    (solder_mask_margin 0.07) (solder_paste_margin -0.05))
  (pad K19 smd circle (at 4.25 0.25) (size 0.3 0.3) (layers F.Cu F.Paste F.Mask)
    (solder_mask_margin 0.07) (solder_paste_margin -0.05))
  (pad K20 smd circle (at 4.75 0.25) (size 0.3 0.3) (layers F.Cu F.Paste F.Mask)
    (solder_mask_margin 0.07) (solder_paste_margin -0.05))
  (pad L18 smd circle (at 3.75 -0.25) (size 0.3 0.3) (layers F.Cu F.Paste F.Mask)
    (solder_mask_margin 0.07) (solder_paste_margin -0.05))
  (pad L19 smd circle (at 4.25 -0.25) (size 0.3 0.3) (layers F.Cu F.Paste F.Mask)
    (solder_mask_margin 0.07) (solder_paste_margin -0.05))
  (pad L20 smd circle (at 4.75 -0.25) (size 0.3 0.3) (layers F.Cu F.Paste F.Mask)
    (solder_mask_margin 0.07) (solder_paste_margin -0.05))
  (pad M18 smd circle (at 3.75 -0.75) (size 0.3 0.3) (layers F.Cu F.Paste F.Mask)
    (solder_mask_margin 0.07) (solder_paste_margin -0.05))
  (pad M19 smd circle (at 4.25 -0.75) (size 0.3 0.3) (layers F.Cu F.Paste F.Mask)
    (solder_mask_margin 0.07) (solder_paste_margin -0.05))
  (pad M20 smd circle (at 4.75 -0.75) (size 0.3 0.3) (layers F.Cu F.Paste F.Mask)
    (solder_mask_margin 0.07) (solder_paste_margin -0.05))
  (pad N18 smd circle (at 3.75 -1.25) (size 0.3 0.3) (layers F.Cu F.Paste F.Mask)
    (solder_mask_margin 0.07) (solder_paste_margin -0.05))
  (pad N19 smd circle (at 4.25 -1.25) (size 0.3 0.3) (layers F.Cu F.Paste F.Mask)
    (solder_mask_margin 0.07) (solder_paste_margin -0.05))
  (pad N20 smd circle (at 4.75 -1.25) (size 0.3 0.3) (layers F.Cu F.Paste F.Mask)
    (solder_mask_margin 0.07) (solder_paste_margin -0.05))
  (pad P18 smd circle (at 3.75 -1.75) (size 0.3 0.3) (layers F.Cu F.Paste F.Mask)
    (solder_mask_margin 0.07) (solder_paste_margin -0.05))
  (pad P19 smd circle (at 4.25 -1.75) (size 0.3 0.3) (layers F.Cu F.Paste F.Mask)
    (solder_mask_margin 0.07) (solder_paste_margin -0.05))
  (pad P20 smd circle (at 4.75 -1.75) (size 0.3 0.3) (layers F.Cu F.Paste F.Mask)
    (solder_mask_margin 0.07) (solder_paste_margin -0.05))
  (pad R18 smd circle (at 3.75 -2.25) (size 0.3 0.3) (layers F.Cu F.Paste F.Mask)
    (solder_mask_margin 0.07) (solder_paste_margin -0.05))
  (pad R19 smd circle (at 4.25 -2.25) (size 0.3 0.3) (layers F.Cu F.Paste F.Mask)
    (solder_mask_margin 0.07) (solder_paste_margin -0.05))
  (pad R20 smd circle (at 4.75 -2.25) (size 0.3 0.3) (layers F.Cu F.Paste F.Mask)
    (solder_mask_margin 0.07) (solder_paste_margin -0.05))
  (pad T18 smd circle (at 3.75 -2.75) (size 0.3 0.3) (layers F.Cu F.Paste F.Mask)
    (solder_mask_margin 0.07) (solder_paste_margin -0.05))
  (pad T19 smd circle (at 4.25 -2.75) (size 0.3 0.3) (layers F.Cu F.Paste F.Mask)
    (solder_mask_margin 0.07) (solder_paste_margin -0.05))
  (pad T20 smd circle (at 4.75 -2.75) (size 0.3 0.3) (layers F.Cu F.Paste F.Mask)
    (solder_mask_margin 0.07) (solder_paste_margin -0.05))
  (pad P1 smd circle (at -4.75 -1.75) (size 0.3 0.3) (layers F.Cu F.Paste F.Mask)
    (solder_mask_margin 0.07) (solder_paste_margin -0.05))
  (pad R1 smd circle (at -4.75 -2.25) (size 0.3 0.3) (layers F.Cu F.Paste F.Mask)
    (solder_mask_margin 0.07) (solder_paste_margin -0.05))
  (pad T1 smd circle (at -4.75 -2.75) (size 0.3 0.3) (layers F.Cu F.Paste F.Mask)
    (solder_mask_margin 0.07) (solder_paste_margin -0.05))
  (pad U1 smd circle (at -4.75 -3.25) (size 0.3 0.3) (layers F.Cu F.Paste F.Mask)
    (solder_mask_margin 0.07) (solder_paste_margin -0.05))
  (pad P2 smd circle (at -4.25 -1.75) (size 0.3 0.3) (layers F.Cu F.Paste F.Mask)
    (solder_mask_margin 0.07) (solder_paste_margin -0.05))
  (pad P3 smd circle (at -3.75 -1.75) (size 0.3 0.3) (layers F.Cu F.Paste F.Mask)
    (solder_mask_margin 0.07) (solder_paste_margin -0.05))
  (pad P4 smd circle (at -3.25 -1.75) (size 0.3 0.3) (layers F.Cu F.Paste F.Mask)
    (solder_mask_margin 0.07) (solder_paste_margin -0.05))
  (pad R2 smd circle (at -4.25 -2.25) (size 0.3 0.3) (layers F.Cu F.Paste F.Mask)
    (solder_mask_margin 0.07) (solder_paste_margin -0.05))
  (pad R3 smd circle (at -3.75 -2.25) (size 0.3 0.3) (layers F.Cu F.Paste F.Mask)
    (solder_mask_margin 0.07) (solder_paste_margin -0.05))
  (pad R4 smd circle (at -3.25 -2.25) (size 0.3 0.3) (layers F.Cu F.Paste F.Mask)
    (solder_mask_margin 0.07) (solder_paste_margin -0.05))
  (pad T2 smd circle (at -4.25 -2.75) (size 0.3 0.3) (layers F.Cu F.Paste F.Mask)
    (solder_mask_margin 0.07) (solder_paste_margin -0.05))
  (pad T3 smd circle (at -3.75 -2.75) (size 0.3 0.3) (layers F.Cu F.Paste F.Mask)
    (solder_mask_margin 0.07) (solder_paste_margin -0.05))
  (pad T4 smd circle (at -3.25 -2.75) (size 0.3 0.3) (layers F.Cu F.Paste F.Mask)
    (solder_mask_margin 0.07) (solder_paste_margin -0.05))
  (pad U2 smd circle (at -4.25 -3.25) (size 0.3 0.3) (layers F.Cu F.Paste F.Mask)
    (solder_mask_margin 0.07) (solder_paste_margin -0.05))
  (pad U3 smd circle (at -3.75 -3.25) (size 0.3 0.3) (layers F.Cu F.Paste F.Mask)
    (solder_mask_margin 0.07) (solder_paste_margin -0.05))
  (pad U4 smd circle (at -3.25 -3.25) (size 0.3 0.3) (layers F.Cu F.Paste F.Mask)
    (solder_mask_margin 0.07) (solder_paste_margin -0.05))
  (pad U5 smd circle (at -2.75 -3.25) (size 0.3 0.3) (layers F.Cu F.Paste F.Mask)
    (solder_mask_margin 0.07) (solder_paste_margin -0.05))
  (pad U6 smd circle (at -2.25 -3.25) (size 0.3 0.3) (layers F.Cu F.Paste F.Mask)
    (solder_mask_margin 0.07) (solder_paste_margin -0.05))
  (pad U7 smd circle (at -1.75 -3.25) (size 0.3 0.3) (layers F.Cu F.Paste F.Mask)
    (solder_mask_margin 0.07) (solder_paste_margin -0.05))
  (pad U8 smd circle (at -1.25 -3.25) (size 0.3 0.3) (layers F.Cu F.Paste F.Mask)
    (solder_mask_margin 0.07) (solder_paste_margin -0.05))
  (pad U9 smd circle (at -0.75 -3.25) (size 0.3 0.3) (layers F.Cu F.Paste F.Mask)
    (solder_mask_margin 0.07) (solder_paste_margin -0.05))
  (pad U10 smd circle (at -0.25 -3.25) (size 0.3 0.3) (layers F.Cu F.Paste F.Mask)
    (solder_mask_margin 0.07) (solder_paste_margin -0.05))
  (pad U11 smd circle (at 0.25 -3.25) (size 0.3 0.3) (layers F.Cu F.Paste F.Mask)
    (solder_mask_margin 0.07) (solder_paste_margin -0.05))
  (pad U12 smd circle (at 0.75 -3.25) (size 0.3 0.3) (layers F.Cu F.Paste F.Mask)
    (solder_mask_margin 0.07) (solder_paste_margin -0.05))
  (pad U13 smd circle (at 1.25 -3.25) (size 0.3 0.3) (layers F.Cu F.Paste F.Mask)
    (solder_mask_margin 0.07) (solder_paste_margin -0.05))
  (pad U14 smd circle (at 1.75 -3.25) (size 0.3 0.3) (layers F.Cu F.Paste F.Mask)
    (solder_mask_margin 0.07) (solder_paste_margin -0.05))
  (pad U15 smd circle (at 2.25 -3.25) (size 0.3 0.3) (layers F.Cu F.Paste F.Mask)
    (solder_mask_margin 0.07) (solder_paste_margin -0.05))
  (pad U16 smd circle (at 2.75 -3.25) (size 0.3 0.3) (layers F.Cu F.Paste F.Mask)
    (solder_mask_margin 0.07) (solder_paste_margin -0.05))
  (pad U17 smd circle (at 3.25 -3.25) (size 0.3 0.3) (layers F.Cu F.Paste F.Mask)
    (solder_mask_margin 0.07) (solder_paste_margin -0.05))
  (pad U18 smd circle (at 3.75 -3.25) (size 0.3 0.3) (layers F.Cu F.Paste F.Mask)
    (solder_mask_margin 0.07) (solder_paste_margin -0.05))
  (pad U19 smd circle (at 4.25 -3.25) (size 0.3 0.3) (layers F.Cu F.Paste F.Mask)
    (solder_mask_margin 0.07) (solder_paste_margin -0.05))
  (pad U20 smd circle (at 4.75 -3.25) (size 0.3 0.3) (layers F.Cu F.Paste F.Mask)
    (solder_mask_margin 0.07) (solder_paste_margin -0.05))
  (pad V1 smd circle (at -4.75 -3.75) (size 0.3 0.3) (layers F.Cu F.Paste F.Mask)
    (solder_mask_margin 0.07) (solder_paste_margin -0.05))
  (pad V2 smd circle (at -4.25 -3.75) (size 0.3 0.3) (layers F.Cu F.Paste F.Mask)
    (solder_mask_margin 0.07) (solder_paste_margin -0.05))
  (pad V3 smd circle (at -3.75 -3.75) (size 0.3 0.3) (layers F.Cu F.Paste F.Mask)
    (solder_mask_margin 0.07) (solder_paste_margin -0.05))
  (pad V4 smd circle (at -3.25 -3.75) (size 0.3 0.3) (layers F.Cu F.Paste F.Mask)
    (solder_mask_margin 0.07) (solder_paste_margin -0.05))
  (pad V5 smd circle (at -2.75 -3.75) (size 0.3 0.3) (layers F.Cu F.Paste F.Mask)
    (solder_mask_margin 0.07) (solder_paste_margin -0.05))
  (pad V6 smd circle (at -2.25 -3.75) (size 0.3 0.3) (layers F.Cu F.Paste F.Mask)
    (solder_mask_margin 0.07) (solder_paste_margin -0.05))
  (pad V7 smd circle (at -1.75 -3.75) (size 0.3 0.3) (layers F.Cu F.Paste F.Mask)
    (solder_mask_margin 0.07) (solder_paste_margin -0.05))
  (pad V8 smd circle (at -1.25 -3.75) (size 0.3 0.3) (layers F.Cu F.Paste F.Mask)
    (solder_mask_margin 0.07) (solder_paste_margin -0.05))
  (pad V9 smd circle (at -0.75 -3.75) (size 0.3 0.3) (layers F.Cu F.Paste F.Mask)
    (solder_mask_margin 0.07) (solder_paste_margin -0.05))
  (pad V10 smd circle (at -0.25 -3.75) (size 0.3 0.3) (layers F.Cu F.Paste F.Mask)
    (solder_mask_margin 0.07) (solder_paste_margin -0.05))
  (pad V11 smd circle (at 0.25 -3.75) (size 0.3 0.3) (layers F.Cu F.Paste F.Mask)
    (solder_mask_margin 0.07) (solder_paste_margin -0.05))
  (pad V12 smd circle (at 0.75 -3.75) (size 0.3 0.3) (layers F.Cu F.Paste F.Mask)
    (solder_mask_margin 0.07) (solder_paste_margin -0.05))
  (pad V13 smd circle (at 1.25 -3.75) (size 0.3 0.3) (layers F.Cu F.Paste F.Mask)
    (solder_mask_margin 0.07) (solder_paste_margin -0.05))
  (pad V14 smd circle (at 1.75 -3.75) (size 0.3 0.3) (layers F.Cu F.Paste F.Mask)
    (solder_mask_margin 0.07) (solder_paste_margin -0.05))
  (pad V15 smd circle (at 2.25 -3.75) (size 0.3 0.3) (layers F.Cu F.Paste F.Mask)
    (solder_mask_margin 0.07) (solder_paste_margin -0.05))
  (pad V16 smd circle (at 2.75 -3.75) (size 0.3 0.3) (layers F.Cu F.Paste F.Mask)
    (solder_mask_margin 0.07) (solder_paste_margin -0.05))
  (pad V17 smd circle (at 3.25 -3.75) (size 0.3 0.3) (layers F.Cu F.Paste F.Mask)
    (solder_mask_margin 0.07) (solder_paste_margin -0.05))
  (pad V18 smd circle (at 3.75 -3.75) (size 0.3 0.3) (layers F.Cu F.Paste F.Mask)
    (solder_mask_margin 0.07) (solder_paste_margin -0.05))
  (pad V19 smd circle (at 4.25 -3.75) (size 0.3 0.3) (layers F.Cu F.Paste F.Mask)
    (solder_mask_margin 0.07) (solder_paste_margin -0.05))
  (pad V20 smd circle (at 4.75 -3.75) (size 0.3 0.3) (layers F.Cu F.Paste F.Mask)
    (solder_mask_margin 0.07) (solder_paste_margin -0.05))
  (pad W1 smd circle (at -4.75 -4.25) (size 0.3 0.3) (layers F.Cu F.Paste F.Mask)
    (solder_mask_margin 0.07) (solder_paste_margin -0.05))
  (pad W2 smd circle (at -4.25 -4.25) (size 0.3 0.3) (layers F.Cu F.Paste F.Mask)
    (solder_mask_margin 0.07) (solder_paste_margin -0.05))
  (pad W3 smd circle (at -3.75 -4.25) (size 0.3 0.3) (layers F.Cu F.Paste F.Mask)
    (solder_mask_margin 0.07) (solder_paste_margin -0.05))
  (pad W4 smd circle (at -3.25 -4.25) (size 0.3 0.3) (layers F.Cu F.Paste F.Mask)
    (solder_mask_margin 0.07) (solder_paste_margin -0.05))
  (pad W5 smd circle (at -2.75 -4.25) (size 0.3 0.3) (layers F.Cu F.Paste F.Mask)
    (solder_mask_margin 0.07) (solder_paste_margin -0.05))
  (pad W6 smd circle (at -2.25 -4.25) (size 0.3 0.3) (layers F.Cu F.Paste F.Mask)
    (solder_mask_margin 0.07) (solder_paste_margin -0.05))
  (pad W7 smd circle (at -1.75 -4.25) (size 0.3 0.3) (layers F.Cu F.Paste F.Mask)
    (solder_mask_margin 0.07) (solder_paste_margin -0.05))
  (pad W8 smd circle (at -1.25 -4.25) (size 0.3 0.3) (layers F.Cu F.Paste F.Mask)
    (solder_mask_margin 0.07) (solder_paste_margin -0.05))
  (pad W9 smd circle (at -0.75 -4.25) (size 0.3 0.3) (layers F.Cu F.Paste F.Mask)
    (solder_mask_margin 0.07) (solder_paste_margin -0.05))
  (pad W10 smd circle (at -0.25 -4.25) (size 0.3 0.3) (layers F.Cu F.Paste F.Mask)
    (solder_mask_margin 0.07) (solder_paste_margin -0.05))
  (pad W11 smd circle (at 0.25 -4.25) (size 0.3 0.3) (layers F.Cu F.Paste F.Mask)
    (solder_mask_margin 0.07) (solder_paste_margin -0.05))
  (pad W12 smd circle (at 0.75 -4.25) (size 0.3 0.3) (layers F.Cu F.Paste F.Mask)
    (solder_mask_margin 0.07) (solder_paste_margin -0.05))
  (pad W13 smd circle (at 1.25 -4.25) (size 0.3 0.3) (layers F.Cu F.Paste F.Mask)
    (solder_mask_margin 0.07) (solder_paste_margin -0.05))
  (pad W14 smd circle (at 1.75 -4.25) (size 0.3 0.3) (layers F.Cu F.Paste F.Mask)
    (solder_mask_margin 0.07) (solder_paste_margin -0.05))
  (pad W15 smd circle (at 2.25 -4.25) (size 0.3 0.3) (layers F.Cu F.Paste F.Mask)
    (solder_mask_margin 0.07) (solder_paste_margin -0.05))
  (pad W16 smd circle (at 2.75 -4.25) (size 0.3 0.3) (layers F.Cu F.Paste F.Mask)
    (solder_mask_margin 0.07) (solder_paste_margin -0.05))
  (pad W17 smd circle (at 3.25 -4.25) (size 0.3 0.3) (layers F.Cu F.Paste F.Mask)
    (solder_mask_margin 0.07) (solder_paste_margin -0.05))
  (pad W18 smd circle (at 3.75 -4.25) (size 0.3 0.3) (layers F.Cu F.Paste F.Mask)
    (solder_mask_margin 0.07) (solder_paste_margin -0.05))
  (pad W19 smd circle (at 4.25 -4.25) (size 0.3 0.3) (layers F.Cu F.Paste F.Mask)
    (solder_mask_margin 0.07) (solder_paste_margin -0.05))
  (pad W20 smd circle (at 4.75 -4.25) (size 0.3 0.3) (layers F.Cu F.Paste F.Mask)
    (solder_mask_margin 0.07) (solder_paste_margin -0.05))
  (pad Y1 smd circle (at -4.75 -4.75) (size 0.3 0.3) (layers F.Cu F.Paste F.Mask)
    (solder_mask_margin 0.07) (solder_paste_margin -0.05))
  (pad Y2 smd circle (at -4.25 -4.75) (size 0.3 0.3) (layers F.Cu F.Paste F.Mask)
    (solder_mask_margin 0.07) (solder_paste_margin -0.05))
  (pad Y3 smd circle (at -3.75 -4.75) (size 0.3 0.3) (layers F.Cu F.Paste F.Mask)
    (solder_mask_margin 0.07) (solder_paste_margin -0.05))
  (pad Y4 smd circle (at -3.25 -4.75) (size 0.3 0.3) (layers F.Cu F.Paste F.Mask)
    (solder_mask_margin 0.07) (solder_paste_margin -0.05))
  (pad Y5 smd circle (at -2.75 -4.75) (size 0.3 0.3) (layers F.Cu F.Paste F.Mask)
    (solder_mask_margin 0.07) (solder_paste_margin -0.05))
  (pad Y6 smd circle (at -2.25 -4.75) (size 0.3 0.3) (layers F.Cu F.Paste F.Mask)
    (solder_mask_margin 0.07) (solder_paste_margin -0.05))
  (pad Y7 smd circle (at -1.75 -4.75) (size 0.3 0.3) (layers F.Cu F.Paste F.Mask)
    (solder_mask_margin 0.07) (solder_paste_margin -0.05))
  (pad Y8 smd circle (at -1.25 -4.75) (size 0.3 0.3) (layers F.Cu F.Paste F.Mask)
    (solder_mask_margin 0.07) (solder_paste_margin -0.05))
  (pad Y9 smd circle (at -0.75 -4.75) (size 0.3 0.3) (layers F.Cu F.Paste F.Mask)
    (solder_mask_margin 0.07) (solder_paste_margin -0.05))
  (pad Y10 smd circle (at -0.25 -4.75) (size 0.3 0.3) (layers F.Cu F.Paste F.Mask)
    (solder_mask_margin 0.07) (solder_paste_margin -0.05))
  (pad Y11 smd circle (at 0.25 -4.75) (size 0.3 0.3) (layers F.Cu F.Paste F.Mask)
    (solder_mask_margin 0.07) (solder_paste_margin -0.05))
  (pad Y12 smd circle (at 0.75 -4.75) (size 0.3 0.3) (layers F.Cu F.Paste F.Mask)
    (solder_mask_margin 0.07) (solder_paste_margin -0.05))
  (pad Y13 smd circle (at 1.25 -4.75) (size 0.3 0.3) (layers F.Cu F.Paste F.Mask)
    (solder_mask_margin 0.07) (solder_paste_margin -0.05))
  (pad Y14 smd circle (at 1.75 -4.75) (size 0.3 0.3) (layers F.Cu F.Paste F.Mask)
    (solder_mask_margin 0.07) (solder_paste_margin -0.05))
  (pad Y15 smd circle (at 2.25 -4.75) (size 0.3 0.3) (layers F.Cu F.Paste F.Mask)
    (solder_mask_margin 0.07) (solder_paste_margin -0.05))
  (pad Y16 smd circle (at 2.75 -4.75) (size 0.3 0.3) (layers F.Cu F.Paste F.Mask)
    (solder_mask_margin 0.07) (solder_paste_margin -0.05))
  (pad Y17 smd circle (at 3.25 -4.75) (size 0.3 0.3) (layers F.Cu F.Paste F.Mask)
    (solder_mask_margin 0.07) (solder_paste_margin -0.05))
  (pad Y18 smd circle (at 3.75 -4.75) (size 0.3 0.3) (layers F.Cu F.Paste F.Mask)
    (solder_mask_margin 0.07) (solder_paste_margin -0.05))
  (pad Y19 smd circle (at 4.25 -4.75) (size 0.3 0.3) (layers F.Cu F.Paste F.Mask)
    (solder_mask_margin 0.07) (solder_paste_margin -0.05))
  (pad Y20 smd circle (at 4.75 -4.75) (size 0.3 0.3) (layers F.Cu F.Paste F.Mask)
    (solder_mask_margin 0.07) (solder_paste_margin -0.05))
  (model walter/smd_bga/mbga256.wrl
    (at (xyz 0 0 0))
    (scale (xyz 1 1 1))
    (rotate (xyz 0 0 0))
  )
)
