(module tfbga100-std (layer F.Cu) (tedit 54F8E40C)
  (descr "100 pin Thin Fine Pitch BGA (standard pin numbering)")
  (fp_text reference U*** (at 0 -5) (layer F.SilkS)
    (effects (font (size 0.5 0.5) (thickness 0.1)))
  )
  (fp_text value TFBGA-100-STD (at 0 5) (layer F.SilkS)
    (effects (font (size 0.5 0.5) (thickness 0.1)))
  )
  (fp_line (start -3.3 4.9) (end -4.9 4.9) (layer F.SilkS) (width 0.127))
  (fp_line (start -4.9 4.9) (end -4.9 3.3) (layer F.SilkS) (width 0.127))
  (fp_line (start -4.8 3.4) (end -4.8 4.8) (layer F.SilkS) (width 0.127))
  (fp_line (start -4.8 4.8) (end -3.4 4.8) (layer F.SilkS) (width 0.127))
  (fp_line (start -3.5 4.7) (end -3.2 5) (layer F.SilkS) (width 0.127))
  (fp_line (start -3.2 5) (end -5 5) (layer F.SilkS) (width 0.127))
  (fp_line (start -5 5) (end -5 3.2) (layer F.SilkS) (width 0.127))
  (fp_line (start -5 3.2) (end -4.7 3.5) (layer F.SilkS) (width 0.127))
  (fp_line (start -4.7 3.5) (end -4.7 4.7) (layer F.SilkS) (width 0.127))
  (fp_line (start -4.7 4.7) (end -3.5 4.7) (layer F.SilkS) (width 0.127))
  (fp_line (start -4.5 4) (end -4.5 -4) (layer F.SilkS) (width 0.127))
  (fp_line (start 4 4.5) (end -4 4.5) (layer F.SilkS) (width 0.127))
  (fp_line (start 4.5 -4) (end 4.5 4) (layer F.SilkS) (width 0.127))
  (fp_line (start -4 -4.5) (end 4 -4.5) (layer F.SilkS) (width 0.127))
  (fp_line (start -4 4.5) (end -4.5 4) (layer F.SilkS) (width 0.127))
  (fp_line (start -4.5 -4) (end -4 -4.5) (layer F.SilkS) (width 0.127))
  (fp_line (start 4 -4.5) (end 4.5 -4) (layer F.SilkS) (width 0.127))
  (fp_line (start 4.5 4) (end 4 4.5) (layer F.SilkS) (width 0.127))
  (pad K9 smd circle (at 3.6 -2.8) (size 0.35 0.35) (layers F.Cu F.Paste F.Mask)
    (solder_mask_margin 0.07) (solder_paste_margin -0.05))
  (pad J9 smd circle (at 2.8 -2.8) (size 0.35 0.35) (layers F.Cu F.Paste F.Mask)
    (solder_mask_margin 0.07) (solder_paste_margin -0.05))
  (pad H9 smd circle (at 2 -2.8) (size 0.35 0.35) (layers F.Cu F.Paste F.Mask)
    (solder_mask_margin 0.07) (solder_paste_margin -0.05))
  (pad G9 smd circle (at 1.2 -2.8) (size 0.35 0.35) (layers F.Cu F.Paste F.Mask)
    (solder_mask_margin 0.07) (solder_paste_margin -0.05))
  (pad F9 smd circle (at 0.4 -2.8) (size 0.35 0.35) (layers F.Cu F.Paste F.Mask)
    (solder_mask_margin 0.07) (solder_paste_margin -0.05))
  (pad E9 smd circle (at -0.4 -2.8) (size 0.35 0.35) (layers F.Cu F.Paste F.Mask)
    (solder_mask_margin 0.07) (solder_paste_margin -0.05))
  (pad D9 smd circle (at -1.2 -2.8) (size 0.35 0.35) (layers F.Cu F.Paste F.Mask)
    (solder_mask_margin 0.07) (solder_paste_margin -0.05))
  (pad C9 smd circle (at -2 -2.8) (size 0.35 0.35) (layers F.Cu F.Paste F.Mask)
    (solder_mask_margin 0.07) (solder_paste_margin -0.05))
  (pad B9 smd circle (at -2.8 -2.8) (size 0.35 0.35) (layers F.Cu F.Paste F.Mask)
    (solder_mask_margin 0.07) (solder_paste_margin -0.05))
  (pad A9 smd circle (at -3.6 -2.8) (size 0.35 0.35) (layers F.Cu F.Paste F.Mask)
    (solder_mask_margin 0.07) (solder_paste_margin -0.05))
  (pad A10 smd circle (at -3.6 -3.6) (size 0.35 0.35) (layers F.Cu F.Paste F.Mask)
    (solder_mask_margin 0.07) (solder_paste_margin -0.05))
  (pad B10 smd circle (at -2.8 -3.6) (size 0.35 0.35) (layers F.Cu F.Paste F.Mask)
    (solder_mask_margin 0.07) (solder_paste_margin -0.05))
  (pad C10 smd circle (at -2 -3.6) (size 0.35 0.35) (layers F.Cu F.Paste F.Mask)
    (solder_mask_margin 0.07) (solder_paste_margin -0.05))
  (pad D10 smd circle (at -1.2 -3.6) (size 0.35 0.35) (layers F.Cu F.Paste F.Mask)
    (solder_mask_margin 0.07) (solder_paste_margin -0.05))
  (pad E10 smd circle (at -0.4 -3.6) (size 0.35 0.35) (layers F.Cu F.Paste F.Mask)
    (solder_mask_margin 0.07) (solder_paste_margin -0.05))
  (pad F10 smd circle (at 0.4 -3.6) (size 0.35 0.35) (layers F.Cu F.Paste F.Mask)
    (solder_mask_margin 0.07) (solder_paste_margin -0.05))
  (pad G10 smd circle (at 1.2 -3.6) (size 0.35 0.35) (layers F.Cu F.Paste F.Mask)
    (solder_mask_margin 0.07) (solder_paste_margin -0.05))
  (pad H10 smd circle (at 2 -3.6) (size 0.35 0.35) (layers F.Cu F.Paste F.Mask)
    (solder_mask_margin 0.07) (solder_paste_margin -0.05))
  (pad J10 smd circle (at 2.8 -3.6) (size 0.35 0.35) (layers F.Cu F.Paste F.Mask)
    (solder_mask_margin 0.07) (solder_paste_margin -0.05))
  (pad K10 smd circle (at 3.6 -3.6) (size 0.35 0.35) (layers F.Cu F.Paste F.Mask)
    (solder_mask_margin 0.07) (solder_paste_margin -0.05))
  (pad K5 smd circle (at 3.6 0.4) (size 0.35 0.35) (layers F.Cu F.Paste F.Mask)
    (solder_mask_margin 0.07) (solder_paste_margin -0.05))
  (pad J5 smd circle (at 2.8 0.4) (size 0.35 0.35) (layers F.Cu F.Paste F.Mask)
    (solder_mask_margin 0.07) (solder_paste_margin -0.05))
  (pad H5 smd circle (at 2 0.4) (size 0.35 0.35) (layers F.Cu F.Paste F.Mask)
    (solder_mask_margin 0.07) (solder_paste_margin -0.05))
  (pad G5 smd circle (at 1.2 0.4) (size 0.35 0.35) (layers F.Cu F.Paste F.Mask)
    (solder_mask_margin 0.07) (solder_paste_margin -0.05))
  (pad F5 smd circle (at 0.4 0.4) (size 0.35 0.35) (layers F.Cu F.Paste F.Mask)
    (solder_mask_margin 0.07) (solder_paste_margin -0.05))
  (pad E5 smd circle (at -0.4 0.4) (size 0.35 0.35) (layers F.Cu F.Paste F.Mask)
    (solder_mask_margin 0.07) (solder_paste_margin -0.05))
  (pad D5 smd circle (at -1.2 0.4) (size 0.35 0.35) (layers F.Cu F.Paste F.Mask)
    (solder_mask_margin 0.07) (solder_paste_margin -0.05))
  (pad C5 smd circle (at -2 0.4) (size 0.35 0.35) (layers F.Cu F.Paste F.Mask)
    (solder_mask_margin 0.07) (solder_paste_margin -0.05))
  (pad B5 smd circle (at -2.8 0.4) (size 0.35 0.35) (layers F.Cu F.Paste F.Mask)
    (solder_mask_margin 0.07) (solder_paste_margin -0.05))
  (pad A5 smd circle (at -3.6 0.4) (size 0.35 0.35) (layers F.Cu F.Paste F.Mask)
    (solder_mask_margin 0.07) (solder_paste_margin -0.05))
  (pad A6 smd circle (at -3.6 -0.4) (size 0.35 0.35) (layers F.Cu F.Paste F.Mask)
    (solder_mask_margin 0.07) (solder_paste_margin -0.05))
  (pad B6 smd circle (at -2.8 -0.4) (size 0.35 0.35) (layers F.Cu F.Paste F.Mask)
    (solder_mask_margin 0.07) (solder_paste_margin -0.05))
  (pad C6 smd circle (at -2 -0.4) (size 0.35 0.35) (layers F.Cu F.Paste F.Mask)
    (solder_mask_margin 0.07) (solder_paste_margin -0.05))
  (pad D6 smd circle (at -1.2 -0.4) (size 0.35 0.35) (layers F.Cu F.Paste F.Mask)
    (solder_mask_margin 0.07) (solder_paste_margin -0.05))
  (pad E6 smd circle (at -0.4 -0.4) (size 0.35 0.35) (layers F.Cu F.Paste F.Mask)
    (solder_mask_margin 0.07) (solder_paste_margin -0.05))
  (pad F6 smd circle (at 0.4 -0.4) (size 0.35 0.35) (layers F.Cu F.Paste F.Mask)
    (solder_mask_margin 0.07) (solder_paste_margin -0.05))
  (pad G6 smd circle (at 1.2 -0.4) (size 0.35 0.35) (layers F.Cu F.Paste F.Mask)
    (solder_mask_margin 0.07) (solder_paste_margin -0.05))
  (pad H6 smd circle (at 2 -0.4) (size 0.35 0.35) (layers F.Cu F.Paste F.Mask)
    (solder_mask_margin 0.07) (solder_paste_margin -0.05))
  (pad J6 smd circle (at 2.8 -0.4) (size 0.35 0.35) (layers F.Cu F.Paste F.Mask)
    (solder_mask_margin 0.07) (solder_paste_margin -0.05))
  (pad K6 smd circle (at 3.6 -0.4) (size 0.35 0.35) (layers F.Cu F.Paste F.Mask)
    (solder_mask_margin 0.07) (solder_paste_margin -0.05))
  (pad K8 smd circle (at 3.6 -2) (size 0.35 0.35) (layers F.Cu F.Paste F.Mask)
    (solder_mask_margin 0.07) (solder_paste_margin -0.05))
  (pad J8 smd circle (at 2.8 -2) (size 0.35 0.35) (layers F.Cu F.Paste F.Mask)
    (solder_mask_margin 0.07) (solder_paste_margin -0.05))
  (pad H8 smd circle (at 2 -2) (size 0.35 0.35) (layers F.Cu F.Paste F.Mask)
    (solder_mask_margin 0.07) (solder_paste_margin -0.05))
  (pad G8 smd circle (at 1.2 -2) (size 0.35 0.35) (layers F.Cu F.Paste F.Mask)
    (solder_mask_margin 0.07) (solder_paste_margin -0.05))
  (pad F8 smd circle (at 0.4 -2) (size 0.35 0.35) (layers F.Cu F.Paste F.Mask)
    (solder_mask_margin 0.07) (solder_paste_margin -0.05))
  (pad E8 smd circle (at -0.4 -2) (size 0.35 0.35) (layers F.Cu F.Paste F.Mask)
    (solder_mask_margin 0.07) (solder_paste_margin -0.05))
  (pad D8 smd circle (at -1.2 -2) (size 0.35 0.35) (layers F.Cu F.Paste F.Mask)
    (solder_mask_margin 0.07) (solder_paste_margin -0.05))
  (pad C8 smd circle (at -2 -2) (size 0.35 0.35) (layers F.Cu F.Paste F.Mask)
    (solder_mask_margin 0.07) (solder_paste_margin -0.05))
  (pad B8 smd circle (at -2.8 -2) (size 0.35 0.35) (layers F.Cu F.Paste F.Mask)
    (solder_mask_margin 0.07) (solder_paste_margin -0.05))
  (pad A8 smd circle (at -3.6 -2) (size 0.35 0.35) (layers F.Cu F.Paste F.Mask)
    (solder_mask_margin 0.07) (solder_paste_margin -0.05))
  (pad A7 smd circle (at -3.6 -1.2) (size 0.35 0.35) (layers F.Cu F.Paste F.Mask)
    (solder_mask_margin 0.07) (solder_paste_margin -0.05))
  (pad B7 smd circle (at -2.8 -1.2) (size 0.35 0.35) (layers F.Cu F.Paste F.Mask)
    (solder_mask_margin 0.07) (solder_paste_margin -0.05))
  (pad C7 smd circle (at -2 -1.2) (size 0.35 0.35) (layers F.Cu F.Paste F.Mask)
    (solder_mask_margin 0.07) (solder_paste_margin -0.05))
  (pad D7 smd circle (at -1.2 -1.2) (size 0.35 0.35) (layers F.Cu F.Paste F.Mask)
    (solder_mask_margin 0.07) (solder_paste_margin -0.05))
  (pad E7 smd circle (at -0.4 -1.2) (size 0.35 0.35) (layers F.Cu F.Paste F.Mask)
    (solder_mask_margin 0.07) (solder_paste_margin -0.05))
  (pad F7 smd circle (at 0.4 -1.2) (size 0.35 0.35) (layers F.Cu F.Paste F.Mask)
    (solder_mask_margin 0.07) (solder_paste_margin -0.05))
  (pad G7 smd circle (at 1.2 -1.2) (size 0.35 0.35) (layers F.Cu F.Paste F.Mask)
    (solder_mask_margin 0.07) (solder_paste_margin -0.05))
  (pad H7 smd circle (at 2 -1.2) (size 0.35 0.35) (layers F.Cu F.Paste F.Mask)
    (solder_mask_margin 0.07) (solder_paste_margin -0.05))
  (pad J7 smd circle (at 2.8 -1.2) (size 0.35 0.35) (layers F.Cu F.Paste F.Mask)
    (solder_mask_margin 0.07) (solder_paste_margin -0.05))
  (pad K7 smd circle (at 3.6 -1.2) (size 0.35 0.35) (layers F.Cu F.Paste F.Mask)
    (solder_mask_margin 0.07) (solder_paste_margin -0.05))
  (pad K3 smd circle (at 3.6 2) (size 0.35 0.35) (layers F.Cu F.Paste F.Mask)
    (solder_mask_margin 0.07) (solder_paste_margin -0.05))
  (pad J3 smd circle (at 2.8 2) (size 0.35 0.35) (layers F.Cu F.Paste F.Mask)
    (solder_mask_margin 0.07) (solder_paste_margin -0.05))
  (pad H3 smd circle (at 2 2) (size 0.35 0.35) (layers F.Cu F.Paste F.Mask)
    (solder_mask_margin 0.07) (solder_paste_margin -0.05))
  (pad G3 smd circle (at 1.2 2) (size 0.35 0.35) (layers F.Cu F.Paste F.Mask)
    (solder_mask_margin 0.07) (solder_paste_margin -0.05))
  (pad F3 smd circle (at 0.4 2) (size 0.35 0.35) (layers F.Cu F.Paste F.Mask)
    (solder_mask_margin 0.07) (solder_paste_margin -0.05))
  (pad E3 smd circle (at -0.4 2) (size 0.35 0.35) (layers F.Cu F.Paste F.Mask)
    (solder_mask_margin 0.07) (solder_paste_margin -0.05))
  (pad D3 smd circle (at -1.2 2) (size 0.35 0.35) (layers F.Cu F.Paste F.Mask)
    (solder_mask_margin 0.07) (solder_paste_margin -0.05))
  (pad C3 smd circle (at -2 2) (size 0.35 0.35) (layers F.Cu F.Paste F.Mask)
    (solder_mask_margin 0.07) (solder_paste_margin -0.05))
  (pad B3 smd circle (at -2.8 2) (size 0.35 0.35) (layers F.Cu F.Paste F.Mask)
    (solder_mask_margin 0.07) (solder_paste_margin -0.05))
  (pad A3 smd circle (at -3.6 2) (size 0.35 0.35) (layers F.Cu F.Paste F.Mask)
    (solder_mask_margin 0.07) (solder_paste_margin -0.05))
  (pad A4 smd circle (at -3.6 1.2) (size 0.35 0.35) (layers F.Cu F.Paste F.Mask)
    (solder_mask_margin 0.07) (solder_paste_margin -0.05))
  (pad B4 smd circle (at -2.8 1.2) (size 0.35 0.35) (layers F.Cu F.Paste F.Mask)
    (solder_mask_margin 0.07) (solder_paste_margin -0.05))
  (pad C4 smd circle (at -2 1.2) (size 0.35 0.35) (layers F.Cu F.Paste F.Mask)
    (solder_mask_margin 0.07) (solder_paste_margin -0.05))
  (pad D4 smd circle (at -1.2 1.2) (size 0.35 0.35) (layers F.Cu F.Paste F.Mask)
    (solder_mask_margin 0.07) (solder_paste_margin -0.05))
  (pad E4 smd circle (at -0.4 1.2) (size 0.35 0.35) (layers F.Cu F.Paste F.Mask)
    (solder_mask_margin 0.07) (solder_paste_margin -0.05))
  (pad F4 smd circle (at 0.4 1.2) (size 0.35 0.35) (layers F.Cu F.Paste F.Mask)
    (solder_mask_margin 0.07) (solder_paste_margin -0.05))
  (pad G4 smd circle (at 1.2 1.2) (size 0.35 0.35) (layers F.Cu F.Paste F.Mask)
    (solder_mask_margin 0.07) (solder_paste_margin -0.05))
  (pad H4 smd circle (at 2 1.2) (size 0.35 0.35) (layers F.Cu F.Paste F.Mask)
    (solder_mask_margin 0.07) (solder_paste_margin -0.05))
  (pad J4 smd circle (at 2.8 1.2) (size 0.35 0.35) (layers F.Cu F.Paste F.Mask)
    (solder_mask_margin 0.07) (solder_paste_margin -0.05))
  (pad K4 smd circle (at 3.6 1.2) (size 0.35 0.35) (layers F.Cu F.Paste F.Mask)
    (solder_mask_margin 0.07) (solder_paste_margin -0.05))
  (pad K2 smd circle (at 3.6 2.8) (size 0.35 0.35) (layers F.Cu F.Paste F.Mask)
    (solder_mask_margin 0.07) (solder_paste_margin -0.05))
  (pad J2 smd circle (at 2.8 2.8) (size 0.35 0.35) (layers F.Cu F.Paste F.Mask)
    (solder_mask_margin 0.07) (solder_paste_margin -0.05))
  (pad H2 smd circle (at 2 2.8) (size 0.35 0.35) (layers F.Cu F.Paste F.Mask)
    (solder_mask_margin 0.07) (solder_paste_margin -0.05))
  (pad G2 smd circle (at 1.2 2.8) (size 0.35 0.35) (layers F.Cu F.Paste F.Mask)
    (solder_mask_margin 0.07) (solder_paste_margin -0.05))
  (pad F2 smd circle (at 0.4 2.8) (size 0.35 0.35) (layers F.Cu F.Paste F.Mask)
    (solder_mask_margin 0.07) (solder_paste_margin -0.05))
  (pad E2 smd circle (at -0.4 2.8) (size 0.35 0.35) (layers F.Cu F.Paste F.Mask)
    (solder_mask_margin 0.07) (solder_paste_margin -0.05))
  (pad D2 smd circle (at -1.2 2.8) (size 0.35 0.35) (layers F.Cu F.Paste F.Mask)
    (solder_mask_margin 0.07) (solder_paste_margin -0.05))
  (pad C2 smd circle (at -2 2.8) (size 0.35 0.35) (layers F.Cu F.Paste F.Mask)
    (solder_mask_margin 0.07) (solder_paste_margin -0.05))
  (pad B2 smd circle (at -2.8 2.8) (size 0.35 0.35) (layers F.Cu F.Paste F.Mask)
    (solder_mask_margin 0.07) (solder_paste_margin -0.05))
  (pad A2 smd circle (at -3.6 2.8) (size 0.35 0.35) (layers F.Cu F.Paste F.Mask)
    (solder_mask_margin 0.07) (solder_paste_margin -0.05))
  (pad A1 smd circle (at -3.6 3.6) (size 0.35 0.35) (layers F.Cu F.Paste F.Mask)
    (solder_mask_margin 0.07) (solder_paste_margin -0.05))
  (pad B1 smd circle (at -2.8 3.6) (size 0.35 0.35) (layers F.Cu F.Paste F.Mask)
    (solder_mask_margin 0.07) (solder_paste_margin -0.05))
  (pad C1 smd circle (at -2 3.6) (size 0.35 0.35) (layers F.Cu F.Paste F.Mask)
    (solder_mask_margin 0.07) (solder_paste_margin -0.05))
  (pad D1 smd circle (at -1.2 3.6) (size 0.35 0.35) (layers F.Cu F.Paste F.Mask)
    (solder_mask_margin 0.07) (solder_paste_margin -0.05))
  (pad E1 smd circle (at -0.4 3.6) (size 0.35 0.35) (layers F.Cu F.Paste F.Mask)
    (solder_mask_margin 0.07) (solder_paste_margin -0.05))
  (pad F1 smd circle (at 0.4 3.6) (size 0.35 0.35) (layers F.Cu F.Paste F.Mask)
    (solder_mask_margin 0.07) (solder_paste_margin -0.05))
  (pad G1 smd circle (at 1.2 3.6) (size 0.35 0.35) (layers F.Cu F.Paste F.Mask)
    (solder_mask_margin 0.07) (solder_paste_margin -0.05))
  (pad H1 smd circle (at 2 3.6) (size 0.35 0.35) (layers F.Cu F.Paste F.Mask)
    (solder_mask_margin 0.07) (solder_paste_margin -0.05))
  (pad J1 smd circle (at 2.8 3.6) (size 0.35 0.35) (layers F.Cu F.Paste F.Mask)
    (solder_mask_margin 0.07) (solder_paste_margin -0.05))
  (pad K1 smd circle (at 3.6 3.6) (size 0.35 0.35) (layers F.Cu F.Paste F.Mask)
    (solder_mask_margin 0.07) (solder_paste_margin -0.05))
  (model walter/smd_bga/tfbga100.wrl
    (at (xyz 0 0 0))
    (scale (xyz 1 1 1))
    (rotate (xyz 0 0 0))
  )
)
