(module pin_strip_1.27mm_14x2 (layer F.Cu) (tedit 5868E035)
  (descr "Pin strip 1.27mm 14x2pin")
  (tags "CONN DEV")
  (clearance 0.2)
  (fp_text reference PIN_STRIP_1.27MM_14x2 (at 0 -2.5) (layer F.SilkS)
    (effects (font (size 0.8 0.8) (thickness 0.16)))
  )
  (fp_text value Val** (at 0 2.54) (layer F.SilkS) hide
    (effects (font (size 0.8 0.8) (thickness 0.16)))
  )
  (fp_line (start -9.44 2.1) (end -8.04 2.1) (layer F.SilkS) (width 0.2))
  (fp_line (start -9.54 2.2) (end -8.04 2.2) (layer F.SilkS) (width 0.2))
  (fp_line (start -9.64 2.3) (end -7.94 2.3) (layer F.SilkS) (width 0.2))
  (fp_line (start -9.74 2.4) (end -7.84 2.4) (layer F.SilkS) (width 0.2))
  (fp_line (start -9.84 2.5) (end -7.64 2.5) (layer F.SilkS) (width 0.2))
  (fp_line (start -9.44 2.1) (end -9.44 0.4) (layer F.SilkS) (width 0.2))
  (fp_line (start -9.54 2.2) (end -9.54 0.4) (layer F.SilkS) (width 0.2))
  (fp_line (start -9.64 2.3) (end -9.64 0.3) (layer F.SilkS) (width 0.2))
  (fp_line (start -9.74 2.4) (end -9.74 0.2) (layer F.SilkS) (width 0.2))
  (fp_line (start -9.84 0) (end -9.84 2.5) (layer F.SilkS) (width 0.2))
  (fp_line (start -8.04 2.1) (end -7.64 2.5) (layer F.SilkS) (width 0.2))
  (fp_line (start -9.84 0) (end -9.44 0.4) (layer F.SilkS) (width 0.2))
  (fp_line (start -9.045 0) (end -7.595 0) (layer F.SilkS) (width 0.2))
  (fp_line (start 9.04 -1.7) (end 9.04 1.7) (layer F.SilkS) (width 0.2))
  (fp_line (start 9.04 1.7) (end -9.04 1.7) (layer F.SilkS) (width 0.2))
  (fp_line (start -9.04 -1.7) (end 9.04 -1.7) (layer F.SilkS) (width 0.2))
  (fp_line (start -9.04 1.7) (end -9.04 -1.7) (layer F.SilkS) (width 0.2))
  (fp_line (start -7.595 0) (end -7.595 1.7) (layer F.SilkS) (width 0.2))
  (pad 27 thru_hole oval (at 8.255 0.635) (size 1.05 1.05) (drill 0.65) (layers *.Cu *.Mask F.SilkS))
  (pad 28 thru_hole oval (at 8.255 -0.635) (size 1.05 1.05) (drill 0.65) (layers *.Cu *.Mask F.SilkS))
  (pad 26 thru_hole oval (at 6.985 -0.635) (size 1.05 1.05) (drill 0.65) (layers *.Cu *.Mask F.SilkS))
  (pad 25 thru_hole oval (at 6.985 0.635) (size 1.05 1.05) (drill 0.65) (layers *.Cu *.Mask F.SilkS))
  (pad 23 thru_hole oval (at 5.715 0.635) (size 1.05 1.05) (drill 0.65) (layers *.Cu *.Mask F.SilkS))
  (pad 24 thru_hole oval (at 5.715 -0.635) (size 1.05 1.05) (drill 0.65) (layers *.Cu *.Mask F.SilkS))
  (pad 22 thru_hole oval (at 4.445 -0.635) (size 1.05 1.05) (drill 0.65) (layers *.Cu *.Mask F.SilkS))
  (pad 21 thru_hole oval (at 4.445 0.635) (size 1.05 1.05) (drill 0.65) (layers *.Cu *.Mask F.SilkS))
  (pad 20 thru_hole oval (at 3.175 -0.635) (size 1.05 1.05) (drill 0.65) (layers *.Cu *.Mask F.SilkS))
  (pad 19 thru_hole oval (at 3.175 0.635) (size 1.05 1.05) (drill 0.65) (layers *.Cu *.Mask F.SilkS))
  (pad 18 thru_hole oval (at 1.905 -0.635) (size 1.05 1.05) (drill 0.65) (layers *.Cu *.Mask F.SilkS))
  (pad 17 thru_hole oval (at 1.905 0.635) (size 1.05 1.05) (drill 0.65) (layers *.Cu *.Mask F.SilkS))
  (pad 16 thru_hole oval (at 0.635 -0.635) (size 1.05 1.05) (drill 0.65) (layers *.Cu *.Mask F.SilkS))
  (pad 15 thru_hole oval (at 0.635 0.635) (size 1.05 1.05) (drill 0.65) (layers *.Cu *.Mask F.SilkS))
  (pad 1 thru_hole rect (at -8.255 0.635) (size 1.05 1.05) (drill 0.65) (layers *.Cu *.Mask F.SilkS))
  (pad 2 thru_hole oval (at -8.255 -0.635) (size 1.05 1.05) (drill 0.65) (layers *.Cu *.Mask F.SilkS))
  (pad 3 thru_hole oval (at -6.985 0.635) (size 1.05 1.05) (drill 0.65) (layers *.Cu *.Mask F.SilkS))
  (pad 4 thru_hole oval (at -6.985 -0.635) (size 1.05 1.05) (drill 0.65) (layers *.Cu *.Mask F.SilkS))
  (pad 5 thru_hole oval (at -5.715 0.635) (size 1.05 1.05) (drill 0.65) (layers *.Cu *.Mask F.SilkS))
  (pad 6 thru_hole oval (at -5.715 -0.635) (size 1.05 1.05) (drill 0.65) (layers *.Cu *.Mask F.SilkS))
  (pad 7 thru_hole oval (at -4.445 0.635) (size 1.05 1.05) (drill 0.65) (layers *.Cu *.Mask F.SilkS))
  (pad 8 thru_hole oval (at -4.445 -0.635) (size 1.05 1.05) (drill 0.65) (layers *.Cu *.Mask F.SilkS))
  (pad 9 thru_hole oval (at -3.175 0.635) (size 1.05 1.05) (drill 0.65) (layers *.Cu *.Mask F.SilkS))
  (pad 10 thru_hole oval (at -3.175 -0.635) (size 1.05 1.05) (drill 0.65) (layers *.Cu *.Mask F.SilkS))
  (pad 12 thru_hole oval (at -1.905 -0.635) (size 1.05 1.05) (drill 0.65) (layers *.Cu *.Mask F.SilkS))
  (pad 11 thru_hole oval (at -1.905 0.635) (size 1.05 1.05) (drill 0.65) (layers *.Cu *.Mask F.SilkS))
  (pad 13 thru_hole oval (at -0.635 0.635) (size 1.05 1.05) (drill 0.65) (layers *.Cu *.Mask F.SilkS))
  (pad 14 thru_hole oval (at -0.635 -0.635) (size 1.05 1.05) (drill 0.65) (layers *.Cu *.Mask F.SilkS))
  (model walter/pin_strip/pin_strip_1.27mm_14x2.wrl
    (at (xyz 0 0 0))
    (scale (xyz 1 1 1))
    (rotate (xyz 0 0 0))
  )
)
