(module pin_strip_1.27mm_40x2 (layer F.Cu) (tedit 58690273)
  (descr "Pin strip 1.27mm 40x2pin")
  (tags "CONN DEV")
  (clearance 0.2)
  (fp_text reference PIN_STRIP_1.27MM_40x2 (at 0 -2.5) (layer F.SilkS)
    (effects (font (size 0.8 0.8) (thickness 0.16)))
  )
  (fp_text value Val** (at 0 2.5) (layer F.SilkS) hide
    (effects (font (size 0.8 0.8) (thickness 0.16)))
  )
  (fp_line (start -25.95 2.1) (end -24.55 2.1) (layer F.SilkS) (width 0.2))
  (fp_line (start -26.05 2.2) (end -24.55 2.2) (layer F.SilkS) (width 0.2))
  (fp_line (start -26.15 2.3) (end -24.45 2.3) (layer F.SilkS) (width 0.2))
  (fp_line (start -26.25 2.4) (end -24.35 2.4) (layer F.SilkS) (width 0.2))
  (fp_line (start -26.35 2.5) (end -24.15 2.5) (layer F.SilkS) (width 0.2))
  (fp_line (start -25.95 2.1) (end -25.95 0.4) (layer F.SilkS) (width 0.2))
  (fp_line (start -26.05 2.2) (end -26.05 0.4) (layer F.SilkS) (width 0.2))
  (fp_line (start -26.15 2.3) (end -26.15 0.3) (layer F.SilkS) (width 0.2))
  (fp_line (start -26.25 2.4) (end -26.25 0.2) (layer F.SilkS) (width 0.2))
  (fp_line (start -26.35 0) (end -26.35 2.5) (layer F.SilkS) (width 0.2))
  (fp_line (start -24.55 2.1) (end -24.15 2.5) (layer F.SilkS) (width 0.2))
  (fp_line (start -26.35 0) (end -25.95 0.4) (layer F.SilkS) (width 0.2))
  (fp_line (start -25.555 0) (end -24.105 0) (layer F.SilkS) (width 0.2))
  (fp_line (start 25.55 -1.7) (end 25.55 1.7) (layer F.SilkS) (width 0.2))
  (fp_line (start 25.55 1.7) (end -25.55 1.7) (layer F.SilkS) (width 0.2))
  (fp_line (start -25.55 -1.7) (end 25.55 -1.7) (layer F.SilkS) (width 0.2))
  (fp_line (start -25.55 1.7) (end -25.55 -1.7) (layer F.SilkS) (width 0.2))
  (fp_line (start -24.105 0) (end -24.105 1.7) (layer F.SilkS) (width 0.2))
  (pad 64 thru_hole oval (at 14.605 -0.635) (size 1.05 1.05) (drill 0.65) (layers *.Cu *.Mask F.SilkS))
  (pad 63 thru_hole oval (at 14.605 0.635) (size 1.05 1.05) (drill 0.65) (layers *.Cu *.Mask F.SilkS))
  (pad 61 thru_hole oval (at 13.335 0.635) (size 1.05 1.05) (drill 0.65) (layers *.Cu *.Mask F.SilkS))
  (pad 62 thru_hole oval (at 13.335 -0.635) (size 1.05 1.05) (drill 0.65) (layers *.Cu *.Mask F.SilkS))
  (pad 60 thru_hole oval (at 12.065 -0.635) (size 1.05 1.05) (drill 0.65) (layers *.Cu *.Mask F.SilkS))
  (pad 59 thru_hole oval (at 12.065 0.635) (size 1.05 1.05) (drill 0.65) (layers *.Cu *.Mask F.SilkS))
  (pad 58 thru_hole oval (at 10.795 -0.635) (size 1.05 1.05) (drill 0.65) (layers *.Cu *.Mask F.SilkS))
  (pad 57 thru_hole oval (at 10.795 0.635) (size 1.05 1.05) (drill 0.65) (layers *.Cu *.Mask F.SilkS))
  (pad 56 thru_hole oval (at 9.525 -0.635) (size 1.05 1.05) (drill 0.65) (layers *.Cu *.Mask F.SilkS))
  (pad 55 thru_hole oval (at 9.525 0.635) (size 1.05 1.05) (drill 0.65) (layers *.Cu *.Mask F.SilkS))
  (pad 54 thru_hole oval (at 8.255 -0.635) (size 1.05 1.05) (drill 0.65) (layers *.Cu *.Mask F.SilkS))
  (pad 53 thru_hole oval (at 8.255 0.635) (size 1.05 1.05) (drill 0.65) (layers *.Cu *.Mask F.SilkS))
  (pad 52 thru_hole oval (at 6.985 -0.635) (size 1.05 1.05) (drill 0.65) (layers *.Cu *.Mask F.SilkS))
  (pad 51 thru_hole circle (at 6.985 0.635) (size 1.05 1.05) (drill 0.65) (layers *.Cu *.Mask F.SilkS))
  (pad 65 thru_hole oval (at 15.875 0.635) (size 1.05 1.05) (drill 0.65) (layers *.Cu *.Mask F.SilkS))
  (pad 66 thru_hole oval (at 15.875 -0.635) (size 1.05 1.05) (drill 0.65) (layers *.Cu *.Mask F.SilkS))
  (pad 67 thru_hole oval (at 17.145 0.635) (size 1.05 1.05) (drill 0.65) (layers *.Cu *.Mask F.SilkS))
  (pad 68 thru_hole oval (at 17.145 -0.635) (size 1.05 1.05) (drill 0.65) (layers *.Cu *.Mask F.SilkS))
  (pad 69 thru_hole oval (at 18.415 0.635) (size 1.05 1.05) (drill 0.65) (layers *.Cu *.Mask F.SilkS))
  (pad 70 thru_hole oval (at 18.415 -0.635) (size 1.05 1.05) (drill 0.65) (layers *.Cu *.Mask F.SilkS))
  (pad 71 thru_hole oval (at 19.685 0.635) (size 1.05 1.05) (drill 0.65) (layers *.Cu *.Mask F.SilkS))
  (pad 72 thru_hole oval (at 19.685 -0.635) (size 1.05 1.05) (drill 0.65) (layers *.Cu *.Mask F.SilkS))
  (pad 74 thru_hole oval (at 20.955 -0.635) (size 1.05 1.05) (drill 0.65) (layers *.Cu *.Mask F.SilkS))
  (pad 73 thru_hole oval (at 20.955 0.635) (size 1.05 1.05) (drill 0.65) (layers *.Cu *.Mask F.SilkS))
  (pad 75 thru_hole oval (at 22.225 0.635) (size 1.05 1.05) (drill 0.65) (layers *.Cu *.Mask F.SilkS))
  (pad 76 thru_hole oval (at 22.225 -0.635) (size 1.05 1.05) (drill 0.65) (layers *.Cu *.Mask F.SilkS))
  (pad 79 thru_hole oval (at 24.765 0.635) (size 1.05 1.05) (drill 0.65) (layers *.Cu *.Mask F.SilkS))
  (pad 80 thru_hole oval (at 24.765 -0.635) (size 1.05 1.05) (drill 0.65) (layers *.Cu *.Mask F.SilkS))
  (pad 78 thru_hole oval (at 23.495 -0.635) (size 1.05 1.05) (drill 0.65) (layers *.Cu *.Mask F.SilkS))
  (pad 77 thru_hole oval (at 23.495 0.635) (size 1.05 1.05) (drill 0.65) (layers *.Cu *.Mask F.SilkS))
  (pad 33 thru_hole oval (at -4.445 0.635) (size 1.05 1.05) (drill 0.65) (layers *.Cu *.Mask F.SilkS))
  (pad 34 thru_hole oval (at -4.445 -0.635) (size 1.05 1.05) (drill 0.65) (layers *.Cu *.Mask F.SilkS))
  (pad 35 thru_hole oval (at -3.175 0.635) (size 1.05 1.05) (drill 0.65) (layers *.Cu *.Mask F.SilkS))
  (pad 36 thru_hole oval (at -3.175 -0.635) (size 1.05 1.05) (drill 0.65) (layers *.Cu *.Mask F.SilkS))
  (pad 37 thru_hole oval (at -1.905 0.635) (size 1.05 1.05) (drill 0.65) (layers *.Cu *.Mask F.SilkS))
  (pad 38 thru_hole oval (at -1.905 -0.635) (size 1.05 1.05) (drill 0.65) (layers *.Cu *.Mask F.SilkS))
  (pad 39 thru_hole oval (at -0.635 0.635) (size 1.05 1.05) (drill 0.65) (layers *.Cu *.Mask F.SilkS))
  (pad 40 thru_hole oval (at -0.635 -0.635) (size 1.05 1.05) (drill 0.65) (layers *.Cu *.Mask F.SilkS))
  (pad 42 thru_hole oval (at 0.635 -0.635) (size 1.05 1.05) (drill 0.65) (layers *.Cu *.Mask F.SilkS))
  (pad 41 thru_hole oval (at 0.635 0.635) (size 1.05 1.05) (drill 0.65) (layers *.Cu *.Mask F.SilkS))
  (pad 43 thru_hole oval (at 1.905 0.635) (size 1.05 1.05) (drill 0.65) (layers *.Cu *.Mask F.SilkS))
  (pad 44 thru_hole oval (at 1.905 -0.635) (size 1.05 1.05) (drill 0.65) (layers *.Cu *.Mask F.SilkS))
  (pad 50 thru_hole oval (at 5.715 -0.635) (size 1.05 1.05) (drill 0.65) (layers *.Cu *.Mask F.SilkS))
  (pad 49 thru_hole oval (at 5.715 0.635) (size 1.05 1.05) (drill 0.65) (layers *.Cu *.Mask F.SilkS))
  (pad 47 thru_hole oval (at 4.445 0.635) (size 1.05 1.05) (drill 0.65) (layers *.Cu *.Mask F.SilkS))
  (pad 48 thru_hole oval (at 4.445 -0.635) (size 1.05 1.05) (drill 0.65) (layers *.Cu *.Mask F.SilkS))
  (pad 46 thru_hole oval (at 3.175 -0.635) (size 1.05 1.05) (drill 0.65) (layers *.Cu *.Mask F.SilkS))
  (pad 45 thru_hole oval (at 3.175 0.635) (size 1.05 1.05) (drill 0.65) (layers *.Cu *.Mask F.SilkS))
  (pad 27 thru_hole oval (at -8.255 0.635) (size 1.05 1.05) (drill 0.65) (layers *.Cu *.Mask F.SilkS))
  (pad 28 thru_hole oval (at -8.255 -0.635) (size 1.05 1.05) (drill 0.65) (layers *.Cu *.Mask F.SilkS))
  (pad 30 thru_hole oval (at -6.985 -0.635) (size 1.05 1.05) (drill 0.65) (layers *.Cu *.Mask F.SilkS))
  (pad 29 thru_hole oval (at -6.985 0.635) (size 1.05 1.05) (drill 0.65) (layers *.Cu *.Mask F.SilkS))
  (pad 31 thru_hole oval (at -5.715 0.635) (size 1.05 1.05) (drill 0.65) (layers *.Cu *.Mask F.SilkS))
  (pad 32 thru_hole oval (at -5.715 -0.635) (size 1.05 1.05) (drill 0.65) (layers *.Cu *.Mask F.SilkS))
  (pad 26 thru_hole oval (at -9.525 -0.635) (size 1.05 1.05) (drill 0.65) (layers *.Cu *.Mask F.SilkS))
  (pad 25 thru_hole oval (at -9.525 0.635) (size 1.05 1.05) (drill 0.65) (layers *.Cu *.Mask F.SilkS))
  (pad 23 thru_hole oval (at -10.795 0.635) (size 1.05 1.05) (drill 0.65) (layers *.Cu *.Mask F.SilkS))
  (pad 24 thru_hole oval (at -10.795 -0.635) (size 1.05 1.05) (drill 0.65) (layers *.Cu *.Mask F.SilkS))
  (pad 22 thru_hole oval (at -12.065 -0.635) (size 1.05 1.05) (drill 0.65) (layers *.Cu *.Mask F.SilkS))
  (pad 21 thru_hole oval (at -12.065 0.635) (size 1.05 1.05) (drill 0.65) (layers *.Cu *.Mask F.SilkS))
  (pad 20 thru_hole oval (at -13.335 -0.635) (size 1.05 1.05) (drill 0.65) (layers *.Cu *.Mask F.SilkS))
  (pad 19 thru_hole oval (at -13.335 0.635) (size 1.05 1.05) (drill 0.65) (layers *.Cu *.Mask F.SilkS))
  (pad 18 thru_hole oval (at -14.605 -0.635) (size 1.05 1.05) (drill 0.65) (layers *.Cu *.Mask F.SilkS))
  (pad 17 thru_hole oval (at -14.605 0.635) (size 1.05 1.05) (drill 0.65) (layers *.Cu *.Mask F.SilkS))
  (pad 16 thru_hole oval (at -15.875 -0.635) (size 1.05 1.05) (drill 0.65) (layers *.Cu *.Mask F.SilkS))
  (pad 15 thru_hole oval (at -15.875 0.635) (size 1.05 1.05) (drill 0.65) (layers *.Cu *.Mask F.SilkS))
  (pad 1 thru_hole rect (at -24.765 0.635) (size 1.05 1.05) (drill 0.65) (layers *.Cu *.Mask F.SilkS))
  (pad 2 thru_hole oval (at -24.765 -0.635) (size 1.05 1.05) (drill 0.65) (layers *.Cu *.Mask F.SilkS))
  (pad 3 thru_hole oval (at -23.495 0.635) (size 1.05 1.05) (drill 0.65) (layers *.Cu *.Mask F.SilkS))
  (pad 4 thru_hole oval (at -23.495 -0.635) (size 1.05 1.05) (drill 0.65) (layers *.Cu *.Mask F.SilkS))
  (pad 5 thru_hole oval (at -22.225 0.635) (size 1.05 1.05) (drill 0.65) (layers *.Cu *.Mask F.SilkS))
  (pad 6 thru_hole oval (at -22.225 -0.635) (size 1.05 1.05) (drill 0.65) (layers *.Cu *.Mask F.SilkS))
  (pad 7 thru_hole oval (at -20.955 0.635) (size 1.05 1.05) (drill 0.65) (layers *.Cu *.Mask F.SilkS))
  (pad 8 thru_hole oval (at -20.955 -0.635) (size 1.05 1.05) (drill 0.65) (layers *.Cu *.Mask F.SilkS))
  (pad 9 thru_hole oval (at -19.685 0.635) (size 1.05 1.05) (drill 0.65) (layers *.Cu *.Mask F.SilkS))
  (pad 10 thru_hole oval (at -19.685 -0.635) (size 1.05 1.05) (drill 0.65) (layers *.Cu *.Mask F.SilkS))
  (pad 12 thru_hole oval (at -18.415 -0.635) (size 1.05 1.05) (drill 0.65) (layers *.Cu *.Mask F.SilkS))
  (pad 11 thru_hole oval (at -18.415 0.635) (size 1.05 1.05) (drill 0.65) (layers *.Cu *.Mask F.SilkS))
  (pad 13 thru_hole oval (at -17.145 0.635) (size 1.05 1.05) (drill 0.65) (layers *.Cu *.Mask F.SilkS))
  (pad 14 thru_hole oval (at -17.145 -0.635) (size 1.05 1.05) (drill 0.65) (layers *.Cu *.Mask F.SilkS))
  (model walter/pin_strip/pin_strip_1.27mm_40x2.wrl
    (at (xyz 0 0 0))
    (scale (xyz 1 1 1))
    (rotate (xyz 0 0 0))
  )
)
