(module dfn-s-8 (layer F.Cu) (tedit 550559AA)
  (descr "Plastic QFP, Microchip DFN-S-8")
  (fp_text reference U? (at 0 -4) (layer F.SilkS)
    (effects (font (size 0.5 0.5) (thickness 0.1)))
  )
  (fp_text value dfn-s-8 (at 0 4) (layer F.SilkS)
    (effects (font (size 0.5 0.5) (thickness 0.1)))
  )
  (fp_line (start -2.8 2.7) (end -2.8 3.3) (layer F.SilkS) (width 0.127))
  (fp_line (start -2.8 3.3) (end -2.2 3.3) (layer F.SilkS) (width 0.127))
  (fp_line (start -2.3 3.2) (end -2.1 3.4) (layer F.SilkS) (width 0.127))
  (fp_line (start -2.1 3.4) (end -2.9 3.4) (layer F.SilkS) (width 0.127))
  (fp_line (start -2.9 3.4) (end -2.9 2.6) (layer F.SilkS) (width 0.127))
  (fp_line (start -2.9 2.6) (end -2.7 2.8) (layer F.SilkS) (width 0.127))
  (fp_line (start -2.7 2.8) (end -2.7 3.2) (layer F.SilkS) (width 0.127))
  (fp_line (start -2.7 3.2) (end -2.3 3.2) (layer F.SilkS) (width 0.127))
  (fp_line (start -2.5 -3) (end 2.5 -3) (layer F.SilkS) (width 0.127))
  (fp_line (start 2.5 -3) (end 2.5 3) (layer F.SilkS) (width 0.127))
  (fp_line (start 2.5 3) (end -2.5 3) (layer F.SilkS) (width 0.127))
  (fp_line (start -2.5 3) (end -2.5 -3) (layer F.SilkS) (width 0.127))
  (pad 1 smd oval (at -1.905 2.8) (size 0.45 1.1) (layers F.Cu F.Paste F.Mask)
    (solder_mask_margin 0.07))
  (pad 2 smd oval (at -0.635 2.8) (size 0.45 1.1) (layers F.Cu F.Paste F.Mask)
    (solder_mask_margin 0.07))
  (pad 3 smd oval (at 0.635 2.8) (size 0.45 1.1) (layers F.Cu F.Paste F.Mask)
    (solder_mask_margin 0.07))
  (pad 4 smd oval (at 1.905 2.8) (size 0.45 1.1) (layers F.Cu F.Paste F.Mask)
    (solder_mask_margin 0.07))
  (pad 5 smd oval (at 1.905 -2.8) (size 0.45 1.1) (layers F.Cu F.Paste F.Mask)
    (solder_mask_margin 0.07))
  (pad 6 smd oval (at 0.635 -2.8) (size 0.45 1.1) (layers F.Cu F.Paste F.Mask)
    (solder_mask_margin 0.07))
  (pad 7 smd oval (at -0.635 -2.8) (size 0.45 1.1) (layers F.Cu F.Paste F.Mask)
    (solder_mask_margin 0.07))
  (pad 8 smd oval (at -1.905 -2.8) (size 0.45 1.1) (layers F.Cu F.Paste F.Mask)
    (solder_mask_margin 0.07))
  (pad 9 smd rect (at 0 0) (size 4.1 2.4) (layers F.Cu F.Paste F.Mask)
    (solder_mask_margin 0.07) (solder_paste_margin -0.1))
  (model walter/smd_qfn/dfn-s-8.wrl
    (at (xyz 0 0 0))
    (scale (xyz 1 1 1))
    (rotate (xyz 0 0 0))
  )
)
