(module dfn6-3x3 (layer F.Cu) (tedit 55055F44)
  (descr "Plastic DFN, Silicon Labs 6pin 3x3mm")
  (clearance 0.2)
  (fp_text reference U? (at 0 -2.5) (layer F.SilkS)
    (effects (font (size 0.5 0.5) (thickness 0.1)))
  )
  (fp_text value dfn6-3x3 (at 0 2.5) (layer F.SilkS)
    (effects (font (size 0.5 0.5) (thickness 0.1)))
  )
  (fp_line (start -1.4 1.8) (end -1.8 1.8) (layer F.SilkS) (width 0.127))
  (fp_line (start -1.8 1.8) (end -1.8 1.1) (layer F.SilkS) (width 0.127))
  (fp_line (start -1.7 1.7) (end -1.7 1.2) (layer F.SilkS) (width 0.127))
  (fp_line (start -1.7 1.2) (end -1.9 1) (layer F.SilkS) (width 0.127))
  (fp_line (start -1.9 1) (end -1.9 1.9) (layer F.SilkS) (width 0.127))
  (fp_line (start -1.7 1.7) (end -1.5 1.7) (layer F.SilkS) (width 0.127))
  (fp_line (start -1.5 1.7) (end -1.3 1.9) (layer F.SilkS) (width 0.127))
  (fp_line (start -1.3 1.9) (end -1.9 1.9) (layer F.SilkS) (width 0.127))
  (fp_line (start -1.5 -1.5) (end 1.5 -1.5) (layer F.SilkS) (width 0.15))
  (fp_line (start -1.5 1.5) (end 1.5 1.5) (layer F.SilkS) (width 0.15))
  (fp_line (start 1.5 -1.5) (end 1.5 1.5) (layer F.SilkS) (width 0.15))
  (fp_line (start -1.5 1.5) (end -1.5 -1.5) (layer F.SilkS) (width 0.15))
  (pad 1 smd rect (at -1 1.45) (size 0.45 0.85) (layers F.Cu F.Paste F.Mask)
    (solder_mask_margin 0.07))
  (pad 2 smd rect (at 0 1.45) (size 0.45 0.85) (layers F.Cu F.Paste F.Mask)
    (solder_mask_margin 0.07))
  (pad 3 smd rect (at 1 1.45) (size 0.45 0.85) (layers F.Cu F.Paste F.Mask)
    (solder_mask_margin 0.07))
  (pad 4 smd rect (at 1 -1.45) (size 0.45 0.85) (layers F.Cu F.Paste F.Mask)
    (solder_mask_margin 0.07))
  (pad 5 smd rect (at 0 -1.45) (size 0.45 0.85) (layers F.Cu F.Paste F.Mask)
    (solder_mask_margin 0.07))
  (pad 6 smd rect (at -1 -1.45) (size 0.45 0.85) (layers F.Cu F.Paste F.Mask)
    (solder_mask_margin 0.07))
  (pad 7 smd rect (at 0 0) (size 2.5 1.6) (layers F.Cu F.Paste F.Mask)
    (solder_mask_margin 0.07) (solder_paste_margin -0.1))
  (model walter/smd_qfn/dfn6-3x3.wrl
    (at (xyz 0 0 0))
    (scale (xyz 1 1 1))
    (rotate (xyz 0 0 0))
  )
)
