(module hclga-10l (layer F.Cu) (tedit 5505536A)
  (descr "Plastic HCLGA, 10 pins, 25x25x10")
  (solder_mask_margin 0.1)
  (solder_paste_margin -0.03)
  (clearance 0.1)
  (fp_text reference U? (at 0 -1.9) (layer F.SilkS)
    (effects (font (size 0.5 0.5) (thickness 0.1)))
  )
  (fp_text value hclga-10l (at 0 1.9) (layer F.SilkS)
    (effects (font (size 0.5 0.5) (thickness 0.1)))
  )
  (fp_line (start -1 1.5) (end -0.9 1.6) (layer F.SilkS) (width 0.127))
  (fp_line (start -0.9 1.6) (end -1.6 1.6) (layer F.SilkS) (width 0.127))
  (fp_line (start -1.6 1.6) (end -1.6 0.9) (layer F.SilkS) (width 0.127))
  (fp_line (start -1.6 0.9) (end -1.5 1) (layer F.SilkS) (width 0.127))
  (fp_line (start -1 1.5) (end -1.5 1.5) (layer F.SilkS) (width 0.127))
  (fp_line (start -1.5 1.5) (end -1.5 1) (layer F.SilkS) (width 0.127))
  (fp_line (start -1.3 -1.3) (end 1.3 -1.3) (layer F.SilkS) (width 0.127))
  (fp_line (start 1.3 -1.3) (end 1.3 1.3) (layer F.SilkS) (width 0.127))
  (fp_line (start 1.3 1.3) (end -1.3 1.3) (layer F.SilkS) (width 0.127))
  (fp_line (start -1.3 1.3) (end -1.3 -1.3) (layer F.SilkS) (width 0.127))
  (pad 1 smd rect (at -0.3 0.925) (size 0.4 0.55) (layers F.Cu F.Paste F.Mask)
    (solder_mask_margin 0.07))
  (pad 2 smd rect (at 0.3 0.925) (size 0.4 0.55) (layers F.Cu F.Paste F.Mask)
    (solder_mask_margin 0.07))
  (pad 3 smd rect (at 0.925 0.6) (size 0.55 0.4) (layers F.Cu F.Paste F.Mask)
    (solder_mask_margin 0.07))
  (pad 4 smd rect (at 0.925 0) (size 0.55 0.4) (layers F.Cu F.Paste F.Mask)
    (solder_mask_margin 0.07))
  (pad 5 smd rect (at 0.925 -0.6) (size 0.55 0.4) (layers F.Cu F.Paste F.Mask)
    (solder_mask_margin 0.07))
  (pad 6 smd rect (at 0.3 -0.925) (size 0.4 0.55) (layers F.Cu F.Paste F.Mask)
    (solder_mask_margin 0.07))
  (pad 7 smd rect (at -0.3 -0.925) (size 0.4 0.55) (layers F.Cu F.Paste F.Mask)
    (solder_mask_margin 0.07))
  (pad 8 smd rect (at -0.925 -0.6) (size 0.55 0.4) (layers F.Cu F.Paste F.Mask)
    (solder_mask_margin 0.07))
  (pad 9 smd rect (at -0.925 0) (size 0.55 0.4) (layers F.Cu F.Paste F.Mask)
    (solder_mask_margin 0.07))
  (pad 10 smd rect (at -0.925 0.6) (size 0.55 0.4) (layers F.Cu F.Paste F.Mask)
    (solder_mask_margin 0.07))
  (model walter/smd_qfn/hclga-10l.wrl
    (at (xyz 0 0 0))
    (scale (xyz 1 1 1))
    (rotate (xyz 0 0 0))
  )
)
