PCBNEW-LibModule-V1  
# encoding utf-8
Units mm
$INDEX
SSOP28-LD
$EndINDEX
$MODULE SSOP28-LD
Po 0 0 0 15 00000000 00000000 ~~
Li SSOP28-LD
Cd 
Sc 00000000
At SMD
Op 0 0 0
.SolderMask 0
.SolderPaste 0
T0 -6.22319 0 1.00003 1.00003 900 0.05 N V 21 "SSOP28-LD"
T1 0 0 1 0.9 0 0.05 N H 21 "VAL**"
DS -5.2 -2.925 5.2 -2.925 0.1524 21
DS 5.2 -2.925 5.2 2.925 0.1524 21
DS 5.2 2.925 -5.2 2.925 0.1524 21
DS -5.2 2.925 -5.2 -2.925 0.1524 21
DC -4.318 2.032 -4.0132 2.032 0.1524 21
DP 0 0 0 0 4 0 24
Dl -4.38917 -3.9
Dl -4.0625 -3.9
Dl -4.0625 -2.96673
Dl -4.38917 -2.96673
DP 0 0 0 0 4 0 24
Dl -4.39168 2.9656
Dl -4.0625 2.9656
Dl -4.0625 3.90372
Dl -4.39168 3.90372
DP 0 0 0 0 4 0 24
Dl -3.74293 2.9656
Dl -3.4125 2.9656
Dl -3.4125 3.90566
Dl -3.74293 3.90566
DP 0 0 0 0 4 0 24
Dl -3.08975 2.9656
Dl -2.7625 2.9656
Dl -2.7625 3.90284
Dl -3.08975 3.90284
DP 0 0 0 0 4 0 24
Dl -3.74311 -3.9
Dl -3.4125 -3.9
Dl -3.4125 -2.97005
Dl -3.74311 -2.97005
DP 0 0 0 0 4 0 24
Dl -3.08893 -3.9
Dl -2.7625 -3.9
Dl -2.7625 -2.96698
Dl -3.08893 -2.96698
DP 0 0 0 0 4 0 24
Dl -2.4394 -3.9
Dl -2.1125 -3.9
Dl -2.1125 -2.96791
Dl -2.4394 -2.96791
DP 0 0 0 0 4 0 24
Dl -1.78801 -3.9
Dl -1.4625 -3.9
Dl -1.4625 -2.96645
Dl -1.78801 -2.96645
DP 0 0 0 0 4 0 24
Dl -1.13832 -3.9
Dl -0.8125 -3.9
Dl -0.8125 -2.96773
Dl -1.13832 -2.96773
DP 0 0 0 0 4 0 24
Dl -0.488323 -3.9
Dl -0.1625 -3.9
Dl -0.1625 -2.97061
Dl -0.488323 -2.97061
DP 0 0 0 0 4 0 24
Dl 0.162702 -3.9
Dl 0.4875 -3.9
Dl 0.4875 -2.96928
Dl 0.162702 -2.96928
DP 0 0 0 0 4 0 24
Dl 0.81328 -3.9
Dl 1.1375 -3.9
Dl 1.1375 -2.96845
Dl 0.81328 -2.96845
DP 0 0 0 0 4 0 24
Dl 1.46411 -3.9
Dl 1.7875 -3.9
Dl 1.7875 -2.96887
Dl 1.46411 -2.96887
DP 0 0 0 0 4 0 24
Dl 2.11558 -3.9
Dl 2.4375 -3.9
Dl 2.4375 -2.96992
Dl 2.11558 -2.96992
DP 0 0 0 0 4 0 24
Dl 2.76562 -3.9
Dl 3.0875 -3.9
Dl 3.0875 -2.96895
Dl 2.76562 -2.96895
DP 0 0 0 0 4 0 24
Dl 3.41326 -3.9
Dl 3.7375 -3.9
Dl 3.7375 -2.96626
Dl 3.41326 -2.96626
DP 0 0 0 0 4 0 24
Dl 4.06504 -3.9
Dl 4.3875 -3.9
Dl 4.3875 -2.96745
Dl 4.06504 -2.96745
DP 0 0 0 0 4 0 24
Dl -2.4387 2.9656
Dl -2.1125 2.9656
Dl -2.1125 3.90191
Dl -2.4387 3.90191
DP 0 0 0 0 4 0 24
Dl -1.78982 2.9656
Dl -1.4625 2.9656
Dl -1.4625 3.90507
Dl -1.78982 3.90507
DP 0 0 0 0 4 0 24
Dl -1.1389 2.9656
Dl -0.8125 2.9656
Dl -0.8125 3.90479
Dl -1.1389 3.90479
DP 0 0 0 0 4 0 24
Dl -0.487961 2.9656
Dl -0.1625 2.9656
Dl -0.1625 3.90369
Dl -0.487961 3.90369
DP 0 0 0 0 4 0 24
Dl 0.162541 2.9656
Dl 0.4875 2.9656
Dl 0.4875 3.90099
Dl 0.162541 3.90099
DP 0 0 0 0 4 0 24
Dl 0.813192 2.9656
Dl 1.1375 2.9656
Dl 1.1375 3.90332
Dl 0.813192 3.90332
DP 0 0 0 0 4 0 24
Dl 1.46265 2.9656
Dl 1.7875 2.9656
Dl 1.7875 3.9004
Dl 1.46265 3.9004
DP 0 0 0 0 4 0 24
Dl 2.11429 2.9656
Dl 2.4375 2.9656
Dl 2.4375 3.9033
Dl 2.11429 3.9033
DP 0 0 0 0 4 0 24
Dl 2.76556 2.9656
Dl 3.0875 2.9656
Dl 3.0875 3.90432
Dl 2.76556 3.90432
DP 0 0 0 0 4 0 24
Dl 3.41301 2.9656
Dl 3.7375 2.9656
Dl 3.7375 3.90059
Dl 3.41301 3.90059
DP 0 0 0 0 4 0 24
Dl 4.06314 2.9656
Dl 4.3875 2.9656
Dl 4.3875 3.90061
Dl 4.06314 3.90061
$PAD
Sh "28" R 0.348 1.397 0 0 0
At SMD N 00888000
.SolderMask 0
.SolderPaste 0
Ne 0 ""
Po -4.225 -3.656
$EndPAD
$PAD
Sh "27" R 0.348 1.397 0 0 0
At SMD N 00888000
.SolderMask 0
.SolderPaste 0
Ne 0 ""
Po -3.575 -3.656
$EndPAD
$PAD
Sh "26" R 0.348 1.397 0 0 0
At SMD N 00888000
.SolderMask 0
.SolderPaste 0
Ne 0 ""
Po -2.925 -3.656
$EndPAD
$PAD
Sh "25" R 0.348 1.397 0 0 0
At SMD N 00888000
.SolderMask 0
.SolderPaste 0
Ne 0 ""
Po -2.275 -3.656
$EndPAD
$PAD
Sh "24" R 0.348 1.397 0 0 0
At SMD N 00888000
.SolderMask 0
.SolderPaste 0
Ne 0 ""
Po -1.625 -3.656
$EndPAD
$PAD
Sh "23" R 0.348 1.397 0 0 0
At SMD N 00888000
.SolderMask 0
.SolderPaste 0
Ne 0 ""
Po -0.975 -3.656
$EndPAD
$PAD
Sh "22" R 0.348 1.397 0 0 0
At SMD N 00888000
.SolderMask 0
.SolderPaste 0
Ne 0 ""
Po -0.325 -3.656
$EndPAD
$PAD
Sh "20" R 0.348 1.397 0 0 0
At SMD N 00888000
.SolderMask 0
.SolderPaste 0
Ne 0 ""
Po 0.975 -3.656
$EndPAD
$PAD
Sh "21" R 0.348 1.397 0 0 0
At SMD N 00888000
.SolderMask 0
.SolderPaste 0
Ne 0 ""
Po 0.325 -3.656
$EndPAD
$PAD
Sh "19" R 0.348 1.397 0 0 0
At SMD N 00888000
.SolderMask 0
.SolderPaste 0
Ne 0 ""
Po 1.625 -3.656
$EndPAD
$PAD
Sh "18" R 0.348 1.397 0 0 0
At SMD N 00888000
.SolderMask 0
.SolderPaste 0
Ne 0 ""
Po 2.275 -3.656
$EndPAD
$PAD
Sh "17" R 0.348 1.397 0 0 0
At SMD N 00888000
.SolderMask 0
.SolderPaste 0
Ne 0 ""
Po 2.925 -3.656
$EndPAD
$PAD
Sh "16" R 0.348 1.397 0 0 0
At SMD N 00888000
.SolderMask 0
.SolderPaste 0
Ne 0 ""
Po 3.575 -3.656
$EndPAD
$PAD
Sh "15" R 0.348 1.397 0 0 0
At SMD N 00888000
.SolderMask 0
.SolderPaste 0
Ne 0 ""
Po 4.225 -3.656
$EndPAD
$PAD
Sh "1" R 0.348 1.397 0 0 0
At SMD N 00888000
.SolderMask 0
.SolderPaste 0
Ne 0 ""
Po -4.225 3.656
$EndPAD
$PAD
Sh "2" R 0.348 1.397 0 0 0
At SMD N 00888000
.SolderMask 0
.SolderPaste 0
Ne 0 ""
Po -3.575 3.656
$EndPAD
$PAD
Sh "3" R 0.348 1.397 0 0 0
At SMD N 00888000
.SolderMask 0
.SolderPaste 0
Ne 0 ""
Po -2.925 3.656
$EndPAD
$PAD
Sh "4" R 0.348 1.397 0 0 0
At SMD N 00888000
.SolderMask 0
.SolderPaste 0
Ne 0 ""
Po -2.275 3.656
$EndPAD
$PAD
Sh "5" R 0.348 1.397 0 0 0
At SMD N 00888000
.SolderMask 0
.SolderPaste 0
Ne 0 ""
Po -1.625 3.656
$EndPAD
$PAD
Sh "6" R 0.348 1.397 0 0 0
At SMD N 00888000
.SolderMask 0
.SolderPaste 0
Ne 0 ""
Po -0.975 3.656
$EndPAD
$PAD
Sh "7" R 0.348 1.397 0 0 0
At SMD N 00888000
.SolderMask 0
.SolderPaste 0
Ne 0 ""
Po -0.325 3.656
$EndPAD
$PAD
Sh "8" R 0.348 1.397 0 0 0
At SMD N 00888000
.SolderMask 0
.SolderPaste 0
Ne 0 ""
Po 0.325 3.656
$EndPAD
$PAD
Sh "9" R 0.348 1.397 0 0 0
At SMD N 00888000
.SolderMask 0
.SolderPaste 0
Ne 0 ""
Po 0.975 3.656
$EndPAD
$PAD
Sh "10" R 0.348 1.397 0 0 0
At SMD N 00888000
.SolderMask 0
.SolderPaste 0
Ne 0 ""
Po 1.625 3.656
$EndPAD
$PAD
Sh "11" R 0.348 1.397 0 0 0
At SMD N 00888000
.SolderMask 0
.SolderPaste 0
Ne 0 ""
Po 2.275 3.656
$EndPAD
$PAD
Sh "12" R 0.348 1.397 0 0 0
At SMD N 00888000
.SolderMask 0
.SolderPaste 0
Ne 0 ""
Po 2.925 3.656
$EndPAD
$PAD
Sh "13" R 0.348 1.397 0 0 0
At SMD N 00888000
.SolderMask 0
.SolderPaste 0
Ne 0 ""
Po 3.575 3.656
$EndPAD
$PAD
Sh "14" R 0.348 1.397 0 0 0
At SMD N 00888000
.SolderMask 0
.SolderPaste 0
Ne 0 ""
Po 4.225 3.656
$EndPAD
$EndMODULE SSOP28-LD
